%YAML 1.1
%TAG !u! tag:unity3d.com,2011:
--- !u!114 &11400000
MonoBehaviour:
  m_ObjectHideFlags: 0
  m_CorrespondingSourceObject: {fileID: 0}
  m_PrefabInternal: {fileID: 0}
  m_GameObject: {fileID: 0}
  m_Enabled: 1
  m_EditorHideFlags: 0
  m_Script: {fileID: 11500000, guid: a6b194f808b1af6499c93410e504af42, type: 3}
  m_Name: effect_select_01_Atlas
  m_EditorClassIdentifier: 
  atlasFile: {fileID: 4900000, guid: 2cda9e366ba8e274bb047ec599fed4bf, type: 3}
  materials:
  - {fileID: 2100000, guid: 83d465f81e28dff41a56dbac2fad8ffa, type: 2}
