%YAML 1.1
%TAG !u! tag:unity3d.com,2011:
--- !u!114 &11400000
MonoBehaviour:
  m_ObjectHideFlags: 0
  m_CorrespondingSourceObject: {fileID: 0}
  m_PrefabInternal: {fileID: 0}
  m_GameObject: {fileID: 0}
  m_Enabled: 1
  m_EditorHideFlags: 0
  m_Script: {fileID: 11500000, guid: a6b194f808b1af6499c93410e504af42, type: 3}
  m_Name: save_point_Atlas
  m_EditorClassIdentifier: 
  atlasFile: {fileID: 4900000, guid: 4954a8e8c8539d247ab7666a0f40c19e, type: 3}
  materials:
  - {fileID: 2100000, guid: e8edc6a200a7b8f41b98d38344a1e4be, type: 2}
