%YAML 1.1
%TAG !u! tag:unity3d.com,2011:
--- !u!114 &11400000
MonoBehaviour:
  m_ObjectHideFlags: 0
  m_CorrespondingSourceObject: {fileID: 0}
  m_PrefabInternal: {fileID: 0}
  m_GameObject: {fileID: 0}
  m_Enabled: 1
  m_EditorHideFlags: 0
  m_Script: {fileID: 11500000, guid: 09c5d2a8225c5404fbb331d052c4b137, type: 3}
  m_Name: Hscenario_Goblin_01
  m_EditorClassIdentifier: 
  param:
  - ID: 0
    CharaName: 
    ScenarioText: "\u25A0\u25A0\u25A0\u25A0\u25A0\u25A0\u25A0\u25A0\u25A0\u25A0\u25A0\u25A0\u25A0\u25A0\u25A0\u25A0\u25A0\u25A0\u25A0\u25A0\u25A0\u25A0\u25A0\u25A0\u25A0\u25A0\u25A0\u25A0\u25A0\u25A0\u25A0\u25A0\u25A0\u25A0\u25A0\u25A0\u25A0\u25A0\u25A0\u25A0\u25A0\u25A0\u25A0"
    CG: 0
    SE: 
    Voice: 
  - ID: 1
    CharaName: "\u30B4\u30D6\u30EA\u30F3A"
    ScenarioText: "\u300C\u30B2\u30C3\u30B2\u30C3\u30B2\u30C3\u2026\u2026\u300D"
    CG: 0
    SE: 
    Voice: 
  - ID: 2
    CharaName: "\u30D5\u30A3\u30FC\u30CA"
    ScenarioText: "\u300C\u306F\u306A\u3063\u2026\u2026\u96E2\u305B\u3063\u3066\u3070\u3063\uFF01\u3000\u304F\u305D\u3049\u3063\uFF01\u3000\u3053\u3093\u306A\u3001\u3084\u3064\u3089\u306B\u2026\u2026\u3063\uFF01\u300D"
    CG: 0
    SE: 
    Voice: 
  - ID: 3
    CharaName: 
    ScenarioText: "\u30D5\u30A3\u30FC\u30CA\u306F\u30D0\u30BF\u30D0\u30BF\u3068\u66B4\u308C\u3001\u30B4\u30D6\u30EA\u30F3\u305F\u3061\u306E\u62D8\u675F\u3092\u89E3\u3053\u3046\u3068\u3059\u308B\u3002\n\u4E00\u5339\u4E00\u5339\u306E\u529B\u306F\u305D\u308C\u307B\u3069\u3067\u3082\u306A\u3044\u306B\u3082\u95A2\u308F\u3089\u305A\u3001\u6570\u306E\u66B4\u529B\u3067\u30D5\u30A3\u30FC\u30CA\u306E\u4F53\u3092\u62BC\u3055\u3048\u3064\u3051\u306A\u304C\u3089\u3001\n\u30B4\u30D6\u30EA\u30F3\u305F\u3061\u306F\u307E\u3068\u308F\u308A\u3064\u304D\u7D9A\u3051\u3066\u3044\u305F\u3002"
    CG: 0
    SE: 
    Voice: 
  - ID: 4
    CharaName: 
    ScenarioText: "\u6255\u3044\u306E\u3051\u3066\u3082\u6255\u3044\u306E\u3051\u3066\u3082\u30EF\u30E9\u30EF\u30E9\u3068\u7FA4\u304C\u3089\u308C\u3001\u62BC\u3057\u5012\u3055\u308C\u305F\u4F53\u306F\u81EA\u7531\u3092\u596A\u308F\u308C\u305F\u307E\u307E\u3001\n\u8033\u5143\u3067\u7B11\u3044\u7D9A\u3051\u308B\u30B4\u30D6\u30EA\u30F3\u306E\u58F0\u304C\u30D5\u30A3\u30FC\u30CA\u306E\u4E0D\u5B89\u3084\u7126\u308A\u3092\u3072\u305F\u3059\u3089\u717D\u308A\u7D9A\u3051\u308B\u3002"
    CG: 0
    SE: 
    Voice: 
  - ID: 5
    CharaName: "\u30D5\u30A3\u30FC\u30CA"
    ScenarioText: "\u300C\u3046\u3045\u3063\u2026\u2026\u96E2\u305B\u3063\u2026\u2026\u96E2\u305B\u3047\u3063\u2026\u2026\u3050\u3045\u3063\u2026\u2026\u300D"
    CG: 0
    SE: 
    Voice: 
  - ID: 6
    CharaName: 
    ScenarioText: "\u5C0F\u9B3C\u305F\u3061\u306F\u30D5\u30A3\u30FC\u30CA\u3092\u89E3\u653E\u3059\u308B\u6C17\u306A\u3069\u6BDB\u982D\u306A\u3044\u306E\u3060\u308D\u3046\u3002\n\u304B\u306A\u3089\u305A\u8907\u6570\u4EBA\u3067\u5F7C\u5973\u306E\u4F53\u3092\u62BC\u3055\u3048\u3064\u3051\u308B\u3088\u3046\u306B\u9023\u643A\u3092\u53D6\u3063\u3066\u3044\u308B\u3088\u3046\u3060\u3063\u305F\u3002\n\u30D5\u30A3\u30FC\u30CA\u306E\u62B5\u6297\u306E\u58F0\u3092\u805E\u3044\u3066\u3082\u7279\u306B\u610F\u306B\u4ECB\u3057\u305F\u3088\u3046\u306A\u69D8\u5B50\u306F\u306A\u3044\u3002"
    CG: 0
    SE: 
    Voice: 
  - ID: 7
    CharaName: "\u30B4\u30D6\u30EA\u30F3B"
    ScenarioText: "\u300C\u30CF\u30A1\u2026\u2026\u30CF\u30A1\u2026\u2026\u30CF\u30A1\u2026\u2026\u30B1\u30D2\u30D2\u30C3\uFF01\u300D"
    CG: 0
    SE: 
    Voice: 
  - ID: 8
    CharaName: 
    ScenarioText: "\u30D5\u30A3\u30FC\u30CA\u306E\u4F53\u3092\u62BC\u3055\u3048\u3064\u3051\u306A\u304C\u3089\u4E0B\u5351\u305F\u7B11\u307F\u3092\u6D6E\u304B\u3079\u3066\u3044\u308B\u30B4\u30D6\u30EA\u30F3\u305F\u3061\u306F\u3001\u4ECA\u304B\u3089\u5F7C\u5973\u306E\u4F53\u3092\n\u72AF\u3059\u306E\u304C\u697D\u3057\u307F\u3067\u4ED5\u65B9\u304C\u306A\u3044\u3068\u3044\u3063\u305F\u69D8\u5B50\u3060\u3002\n\u30D5\u30A3\u30FC\u30CA\u81EA\u8EAB\u306E\u4E0D\u5B89\u3084\u6012\u308A\u3068\u3044\u3063\u305F\u8868\u60C5\u3084\u53CD\u5FDC\u3059\u3089\u3082\u3059\u3079\u3066\u5A2F\u697D\u3068\u3057\u3066\u697D\u3057\u3093\u3067\u3044\u308B\u3002"
    CG: 0
    SE: 
    Voice: 
  - ID: 9
    CharaName: "\u30D5\u30A3\u30FC\u30CA"
    ScenarioText: "\u300C\u3046\u3045\u3063\u2026\u2026\u3050\u3063\uFF01\u3000\u3084\u3081\u3063\u2026\u2026\u4E57\u308B\u306A\u3041\u3063\uFF01\u300D"
    CG: 1
    SE: 
    Voice: 
  - ID: 10
    CharaName: "\u30B4\u30D6\u30EA\u30F3C"
    ScenarioText: "\u300C\u30B2\u30D2\u30D2\u30C3\uFF01\u3000\u30B2\u30D2\u30D2\u30D2\u30C3\u300D"
    CG: 0
    SE: 
    Voice: 
  - ID: 11
    CharaName: 
    ScenarioText: "\u3044\u304D\u306A\u308A\u4E00\u5339\u306E\u30B4\u30D6\u30EA\u30F3\u304C\u30D5\u30A3\u30FC\u30CA\u306E\u8179\u306E\u4E0A\u306B\u99AC\u4E57\u308A\u306B\u306A\u308B\u3002\n\u5F7C\u5973\u306E\u59FF\u3092\u898B\u3066\u8208\u596E\u3057\u3066\u3044\u305F\u306E\u304B\u3001\u305D\u306E\u30B4\u30D6\u30EA\u30F3\u306E\u30DA\u30CB\u30B9\u306F\u3059\u3067\u306B\u52C3\u8D77\u3057\u3066\u3044\u305F\u3002\n\u30D5\u30A3\u30FC\u30CA\u306E\u304A\u3063\u3071\u3044\u3092\u9DF2\u63B4\u307F\u306B\u3057\u306A\u304C\u3089\u3001\u81EA\u8EAB\u306E\u7537\u6027\u5668\u3092\u64E6\u308A\u4E0A\u3052\u3066\u3044\u304F\u3002"
    CG: 0
    SE: 
    Voice: 
  - ID: 12
    CharaName: "\u30D5\u30A3\u30FC\u30CA"
    ScenarioText: "\u300C\u3044\u305F\u3063\u2026\u2026\u3084\u3081\u308D\u3063\uFF01\u3000\u6C17\u6301\u3061\u60AA\u3044\u3063\u2026\u2026\uFF01\u3000\u6B62\u3081\u308D\u3063\uFF01\u3000\u6B62\u3081\u3066\u3063\uFF01\u300D"
    CG: 0
    SE: 
    Voice: 
  - ID: 13
    CharaName: 
    ScenarioText: "\u5FC5\u6B7B\u306B\u4F53\u3092\u3088\u3058\u3063\u3066\u62B5\u6297\u3092\u3057\u3088\u3046\u3068\u3059\u308B\u30D5\u30A3\u30FC\u30CA\u306B\u5BFE\u3057\u3001\u30B4\u30D6\u30EA\u30F3\u306F\u304A\u3063\u3071\u3044\u306B\u307E\u3068\u308F\u308A\u3064\u3044\u305F\n\u307E\u307E\u3001\u3078\u3053\u3078\u3053\u3068\u8170\u3092\u52D5\u304B\u3057\u7D9A\u3051\u3066\u3044\u304F\u3002\n\u5468\u308A\u306E\u30B4\u30D6\u30EA\u30F3\u305F\u3061\u3082\u305D\u306E\u5149\u666F\u3092\u898B\u3066\u30CB\u30E4\u30CB\u30E4\u3057\u306A\u304C\u3089\u3082\u3001\u62D8\u675F\u3092\u7DE9\u3081\u308B\u6C17\u306F\u306A\u3044\u3002"
    CG: 0
    SE: 
    Voice: 
  - ID: 14
    CharaName: "\u30B4\u30D6\u30EA\u30F3C"
    ScenarioText: "\u300C\u30B2\u30D2\u30C3\uFF01\u3000\u30AA\u30DB\u30A5\u30C3\uFF01\u3000\u30AE\u30D2\u30D2\u30D2\u30D2\u30C3\uFF01\u300D"
    CG: 0
    SE: 
    Voice: 
  - ID: 15
    CharaName: 
    ScenarioText: "\u30D5\u30A3\u30FC\u30CA\u306E\u304D\u3081\u7D30\u3084\u304B\u306A\u808C\u306E\u611F\u89E6\u306B\u3001\u30B4\u30D6\u30EA\u30F3\u304C\u6B53\u559C\u306E\u58F0\u3092\u4E0A\u3052\u3066\u3044\u305F\u3002\n\u6307\u304C\u3069\u3053\u307E\u3067\u3082\u6C88\u3093\u3067\u3044\u304F\u307B\u3069\u306B\u67D4\u3089\u304B\u3044\u304A\u3063\u3071\u3044\u306F\u3001\u30B4\u30D6\u30EA\u30F3\u306E\u6027\u6B32\u51E6\u7406\u306E\u9053\u5177\u3068\u3057\u3066\u6271\u308F\u308C\n\u3066\u3044\u304F\u3002"
    CG: 0
    SE: 
    Voice: 
  - ID: 16
    CharaName: "\u30D5\u30A3\u30FC\u30CA"
    ScenarioText: "\u300C\u304F\u3045\u3045\u2026\u2026\u304F\u305D\u3049\u3049\u3063\u2026\u2026\u300D"
    CG: 0
    SE: 
    Voice: 
  - ID: 17
    CharaName: 
    ScenarioText: "\u6094\u3057\u305D\u3046\u306A\u9854\u3092\u6D6E\u304B\u3079\u308B\u3053\u3068\u3057\u304B\u3067\u304D\u306A\u3044\u30D5\u30A3\u30FC\u30CA\u306F\u3001\u4F53\u3092\u597D\u304D\u52DD\u624B\u306B\u5F04\u3070\u308C\u3066\u3044\u305F\u3002\n\u6BBA\u610F\u3092\u8FBC\u3081\u305F\u523A\u3059\u3088\u3046\u306A\u8996\u7DDA\u3059\u3089\u3082\u3001\u30B4\u30D6\u30EA\u30F3\u306B\u3068\u3063\u3066\u306F\u5A2F\u697D\u306E\u3072\u3068\u3064\u3067\u3057\u304B\u306A\u3044\u306E\u3060\u308D\u3046\u3002\n\u30D5\u30A3\u30FC\u30CA\u306E\u9854\u3092\u8210\u3081\u308B\u3088\u3046\u306B\u898B\u3064\u3081\u306A\u304C\u3089\u53E3\u5143\u3092\u6B6A\u3081\u3066\u3044\u304F\u3002"
    CG: 0
    SE: 
    Voice: 
  - ID: 18
    CharaName: "\u30D5\u30A3\u30FC\u30CA"
    ScenarioText: "\u300C\u3042\u3063\u2026\u2026\u3050\u3045\u3063\uFF01\u3000\u3084\u3081\u3063\u3001\u6B62\u3081\u308D\u3049\u3049\u3063\uFF01\u300D"
    CG: 2
    SE: 
    Voice: 
  - ID: 19
    CharaName: "\u30B4\u30D6\u30EA\u30F3D"
    ScenarioText: "\u300C\u30B2\u30D2\u30C3\uFF01\u3000\u30B2\u30D2\u30D2\u30D2\u30D2\u30C3\uFF01\uFF01\u300D"
    CG: 0
    SE: 
    Voice: 
  - ID: 20
    CharaName: 
    ScenarioText: "\u305D\u3046\u3057\u3066\u3044\u308B\u3046\u3061\u306B\u3001\u5225\u306E\u30B4\u30D6\u30EA\u30F3\u304C\u30D5\u30A3\u30FC\u30CA\u306E\u6027\u5668\u306B\u30DA\u30CB\u30B9\u3092\u64E6\u308A\u4ED8\u3051\u59CB\u3081\u308B\u3002\n\u786C\u304F\u52C3\u8D77\u3057\u305F\u8089\u68D2\u3092\u64E6\u308A\u4ED8\u3051\u3001\u697D\u3057\u305D\u3046\u306B\u30D5\u30A3\u30FC\u30CA\u306E\u69D8\u5B50\u3092\u4F3A\u3063\u3066\u3044\u305F\u3002"
    CG: 0
    SE: 
    Voice: 
  - ID: 21
    CharaName: 
    ScenarioText: "\u6094\u3057\u3055\u3092\u565B\u307F\u3057\u3081\u3001\u7768\u3080\u3053\u3068\u3057\u304B\u3067\u304D\u306A\u3044\u30D5\u30A3\u30FC\u30CA\u3002\n\u5ACC\u60AA\u3082\u4E0D\u5FEB\u3082\u6012\u308A\u3059\u3089\u3082\u3001\u30B4\u30D6\u30EA\u30F3\u306B\u3068\u3063\u3066\u306F\u5F7C\u5973\u306E\u4F53\u3092\u6109\u3057\u3080\u305F\u3081\u306E\u30B9\u30D1\u30A4\u30B9\u3067\u3057\u304B\u306A\u3044\u3002\n\u305D\u3046\u3057\u3066\u3001\u30B4\u30D6\u30EA\u30F3\u305F\u3061\u306E\u8E42\u8E99\u306F\u7D9A\u3044\u3066\u3044\u304F\u3002"
    CG: 0
    SE: 
    Voice: 
  - ID: 22
    CharaName: "\u30D5\u30A3\u30FC\u30CA"
    ScenarioText: "\u300C\u3042\u3041\u3041\u3041\u3063\uFF01\u3000\u6B62\u3081\u308D\u3063\uFF01\u3000\u6B62\u3081\u308D\u3063\u3066\u3070\u3041\u3063\uFF01\u300D"
    CG: 0
    SE: 
    Voice: 
  - ID: 23
    CharaName: "\u30B4\u30D6\u30EA\u30F3D"
    ScenarioText: "\u300C\u30AA\u30C3\u30D5\u30A5\u30C3\u2026\u2026\u30B2\u30D2\u30C3\uFF01\u3000\u30B2\u30D2\u30C3\u30B2\u30D2\u30C3\uFF01\u3000\u30B1\u30D2\u30D2\u30D2\u30D2\u30D2\u30D2\u30C3\uFF01\u300D"
    CG: 0
    SE: 
    Voice: 
  - ID: 24
    CharaName: 
    ScenarioText: "\u30B4\u30D6\u30EA\u30F3\u306E\u8089\u68D2\u304C\u30D5\u30A3\u30FC\u30CA\u306E\u4E2D\u306B\u633F\u5165\u3055\u308C\u308B\u3002\n\u6FE1\u308C\u3066\u3044\u306A\u3044\u81A3\u5185\u306F\u75DB\u307F\u304C\u751F\u3058\u3066\u3044\u308B\u304C\u3001\u30B4\u30D6\u30EA\u30F3\u306B\u306F\u305D\u3093\u306A\u3053\u3068\u306F\u95A2\u4FC2\u306A\u3044\u3002\n\u5DF1\u306E\u8089\u6B32\u306B\u5F93\u3044\u3001\u7121\u9060\u616E\u306B\u8170\u3092\u632F\u308A\u7D9A\u3051\u3066\u3044\u304F\u3002"
    CG: 0
    SE: 
    Voice: 
  - ID: 25
    CharaName: "\u30D5\u30A3\u30FC\u30CA"
    ScenarioText: "\u300C\u3044\u305F\u3063\u2026\u2026\u304F\u3063\u2026\u2026\u75DB\u3044\u2026\u2026\u300D"
    CG: 0
    SE: 
    Voice: 
  - ID: 26
    CharaName: 
    ScenarioText: "\u975E\u96E3\u3082\u9759\u6B62\u306E\u58F0\u3082\u30B4\u30D6\u30EA\u30F3\u305F\u3061\u306B\u901A\u3058\u306A\u3044\u3002\n\u305D\u308C\u3069\u3053\u308D\u304B\u3001\u30E4\u30C4\u3089\u3092\u559C\u3070\u305B\u3066\u3044\u308B\u3053\u3068\u304C\u5206\u304B\u308A\u3001\u30D5\u30A3\u30FC\u30CA\u306F\u5ACC\u60AA\u611F\u3084\u75DB\u307F\u3092\u3050\u3063\u3068\u582A\u3048\u3088\u3046\n\u3068\u3057\u3066\u3044\u305F\u3002"
    CG: 0
    SE: 
    Voice: 
  - ID: 27
    CharaName: "\u30D5\u30A3\u30FC\u30CA"
    ScenarioText: "\u300C\u304F\u3063\u2026\u2026\u3046\u3045\u3063\u2026\u2026\u3046\u3063\u2026\u2026\u3093\u3045\u3063\u2026\u2026\u300D"
    CG: 0
    SE: 
    Voice: 
  - ID: 28
    CharaName: 
    ScenarioText: "\u305D\u308C\u3067\u3082\u3001\u3069\u3046\u3057\u3066\u3082\u58F0\u306F\u6F0F\u308C\u3066\u3057\u307E\u3063\u3066\u3044\u305F\u3002\n\u81A3\u5185\u3092\u304B\u304D\u56DE\u3055\u308C\u3001\u304A\u3063\u3071\u3044\u3092\u5F04\u3070\u308C\u3001\u81EA\u5206\u306E\u4F53\u3092\u9053\u5177\u306E\u3088\u3046\u306B\u6271\u3063\u3066\u3044\u308B\u30B4\u30D6\u30EA\u30F3\u305F\u3061\u306E\u653B\u3081\n\u306B\u8010\u3048\u308B\u3053\u3068\u306F\u3001\u7CBE\u795E\u7684\u306B\u3082\u8FFD\u3044\u8A70\u3081\u3089\u308C\u3066\u3044\u305F\u30D5\u30A3\u30FC\u30CA\u306B\u3068\u3063\u3066\u306F\u3072\u3069\u304F\u56F0\u96E3\u3067\u3042\u3063\u305F\u3002"
    CG: 0
    SE: 
    Voice: 
  - ID: 29
    CharaName: 
    ScenarioText: "\u3069\u3077\u3063\uFF01\u3000\u3069\u3073\u3085\u308B\u3063\uFF01\n\u3073\u3085\u3063\u3073\u3085\u3063\u3073\u3085\u3063\uFF01\u3000\u3073\u3085\u308B\u308B\u3063\uFF01"
    CG: 3
    SE: 
    Voice: 
  - ID: 30
    CharaName: "\u30D5\u30A3\u30FC\u30CA"
    ScenarioText: "\u300C\u3046\u3063\uFF01\u3000\u304F\u3063\u2026\u2026\u3046\u3045\u3045\u3063\u2026\u2026\u300D"
    CG: 0
    SE: 
    Voice: 
  - ID: 31
    CharaName: 
    ScenarioText: "\u305D\u3046\u3057\u3066\u3044\u308B\u3046\u3061\u306B\u30B4\u30D6\u30EA\u30F3\u305F\u3061\u306F\u30D5\u30A3\u30FC\u30CA\u306E\u4F53\u306B\u6D74\u3073\u305B\u308B\u3088\u3046\u306B\u7CBE\u6DB2\u3092\u653E\u51FA\u3057\u3066\u3044\u304F\u3002\n\u7A81\u7136\u9854\u306B\u304B\u3051\u3089\u308C\u3001\u9A5A\u6115\u3057\u3066\u3057\u307E\u3063\u305F\u304C\u3001\u4ECA\u306E\u5F7C\u5973\u306B\u306F\u6211\u6162\u3059\u308B\u3053\u3068\u4EE5\u5916\u306E\u9078\u629E\u80A2\u304C\u306A\u3044\u3002"
    CG: 0
    SE: 
    Voice: 
  - ID: 32
    CharaName: 
    ScenarioText: "\u9F3B\u8154\u306B\u3053\u3073\u308A\u3064\u304F\u3088\u3046\u306A\u96C4\u306E\u81ED\u3044\u306B\u30AF\u30E9\u30AF\u30E9\u3057\u306A\u304C\u3089\u3001\u4E0B\u8179\u90E8\u306B\u611F\u3058\u308B\u71B1\u3044\u611F\u89E6\u304C\u30B4\u30D6\u30EA\u30F3\u306B\u5BFE\n\u3059\u308B\u5ACC\u60AA\u611F\u3092\u4F55\u500D\u306B\u3082\u81A8\u5F35\u305B\u3066\u3044\u3063\u305F\u3002"
    CG: 0
    SE: 
    Voice: 
  - ID: 33
    CharaName: "\u30D5\u30A3\u30FC\u30CA"
    ScenarioText: "\u300C\u2026\u2026\u304F\u305D\u3049\u2026\u2026\u304F\u3045\u3045\u3045\u2026\u2026\u300D"
    CG: 0
    SE: 
    Voice: 
  - ID: 34
    CharaName: 
    ScenarioText: "\u30B4\u30D6\u30EA\u30F3\u305F\u3061\u306F\u5C04\u7CBE\u3092\u7D42\u3048\u305F\u3053\u3068\u306B\u6E80\u8DB3\u3057\u305F\u306E\u304B\u3001\u3042\u3093\u306A\u306B\u3082\u307E\u3068\u308F\u308A\u3064\u3044\u3066\u3044\u305F\u30D5\u30A3\u30FC\u30CA\u306E\u4F53\n\u304B\u3089\u3042\u3063\u3055\u308A\u3068\u3069\u3044\u3066\u3057\u307E\u3063\u3066\u3044\u305F\u3002\n\u5F7C\u5973\u306E\u9854\u3084\u80A1\u9593\u306F\u3001\u30B4\u30D6\u30EA\u30F3\u305F\u3061\u306E\u7C98\u7740\u8CEA\u306A\u7CBE\u6DB2\u304C\u5F35\u308A\u4ED8\u3044\u3066\u3044\u308B\u3002"
    CG: 4
    SE: 
    Voice: 
  - ID: 35
    CharaName: "\u30D5\u30A3\u30FC\u30CA"
    ScenarioText: "\u300C\u3046\u3045\u3045\u2026\u2026\u3084\u3081\u308D\u3049\u2026\u2026\u300D"
    CG: 0
    SE: 
    Voice: 
  - ID: 36
    CharaName: 
    ScenarioText: "\u660E\u3089\u304B\u306B\u52D5\u304D\u304C\u7DE9\u6162\u306B\u306A\u3063\u3066\u3044\u305F\u30D5\u30A3\u30FC\u30CA\u306E\u4F53\u3092\u3001\u307E\u305F\u5225\u306E\u30B4\u30D6\u30EA\u30F3\u305F\u3061\u304C\u6109\u3057\u3080\u305F\u3081\u306B\u8CAA\u308A\u59CB\n\u3081\u308B\u3002\u4F53\u81EA\u4F53\u306B\u529B\u304C\u5165\u3089\u306A\u304F\u306A\u3063\u3066\u3057\u307E\u3063\u3066\u3044\u308B\u30D5\u30A3\u30FC\u30CA\u306F\u3001\u5F31\u5F31\u3057\u304F\u58F0\u3092\u4E0A\u3052\u308B\u3053\u3068\u3057\u304B\u3067\u304D\n\u306A\u3044\u3067\u3044\u308B\u3002"
    CG: 5
    SE: 
    Voice: 
  - ID: 37
    CharaName: "\u30D5\u30A3\u30FC\u30CA"
    ScenarioText: "\u300C\u304F\u3063\u2026\u2026\u3046\u3045\u3063\u2026\u2026\u3042\u3045\u3093\u3063\u2026\u2026\u300D"
    CG: 0
    SE: 
    Voice: 
  - ID: 38
    CharaName: 
    ScenarioText: "\u30B4\u30D6\u30EA\u30F3\u305F\u3061\u306B\u72AF\u3055\u308C\u7D9A\u3051\u3066\u3044\u305F\u30D5\u30A3\u30FC\u30CA\u306E\u4F53\u306B\u3001\u4ECA\u307E\u3067\u3068\u306F\u5225\u306E\u611F\u899A\u304C\u751F\u307E\u308C\u59CB\u3081\u3066\u3044\u305F\u3002\n\u7121\u7406\u3084\u308A\u4F53\u3092\u5F04\u3070\u308C\u3066\u3044\u308B\u306E\u306B\u3001\u5FEB\u611F\u3092\u611F\u3058\u3066\u3044\u308B\u3053\u3068\u306B\u6C17\u4ED8\u3044\u305F\u30D5\u30A3\u30FC\u30CA\u3002\n\u305D\u308C\u3067\u3082\u3001\u3082\u3046\u3069\u3046\u3057\u3088\u3046\u3082\u306A\u304B\u3063\u305F\u3002"
    CG: 6
    SE: 
    Voice: 
  - ID: 39
    CharaName: "\u30D5\u30A3\u30FC\u30CA"
    ScenarioText: "\u300C\u304F\u3063\u3001\u3046\u3045\u3093\u3063\u2026\u2026\u3042\u3063\u3001\u3093\u3063\u2026\u2026\u3093\u3041\u3063\u2026\u2026\u3046\u3063\u3001\u304F\u3045\u3093\u3063\u300D"
    CG: 0
    SE: 
    Voice: 
  - ID: 40
    CharaName: 
    ScenarioText: "\u30D5\u30A3\u30FC\u30CA\u306E\u53E3\u304B\u3089\u7518\u3044\u58F0\u304C\u6F0F\u308C\u59CB\u3081\u308B\u3002\n\u5ACC\u306A\u306F\u305A\u306A\u306E\u306B\u3001\u6094\u3057\u3044\u601D\u3044\u3084\u3001\u6BBA\u610F\u3092\u899A\u3048\u308B\u307B\u3069\u618E\u3044\u306F\u305A\u306A\u306E\u306B\u3001\u4F53\u306F\u5FEB\u611F\u306B\u8CA0\u3051\u3066\u3057\u307E\u3063\u3066\n\u3044\u308B\u306E\u3060\u3002"
    CG: 7
    SE: 
    Voice: 
  - ID: 41
    CharaName: 
    ScenarioText: "\u4F53\u3060\u3051\u3067\u306F\u306A\u304F\u3001\u982D\u306E\u4E2D\u307E\u3067\u3050\u3061\u3083\u3050\u3061\u3083\u306B\u3055\u308C\u306A\u304C\u3089\u3001\u30D5\u30A3\u30FC\u30CA\u306F\u30B4\u30D6\u30EA\u30F3\u305F\u3061\u306B\u72AF\u3055\u308C\u5C3D\u304F\n\u3057\u3066\u3044\u3063\u305F\u3002"
    CG: 0
    SE: 
    Voice: 
  - ID: 42
    CharaName: 
    ScenarioText: "\u3073\u3085\u308B\u3063\uFF01\u3000\u3073\u3085\u308B\u3073\u3085\u3063\uFF01\n\u3073\u3085\u30FC\u3063\uFF01\u3000\u3073\u3085\u30FC\u3063\uFF01\u3000\u3073\u3085\u30FC\u3063\uFF01"
    CG: 0
    SE: 
    Voice: 
  - ID: 43
    CharaName: "\u30D5\u30A3\u30FC\u30CA"
    ScenarioText: "\u300C\u3093\u3093\u3093\u3093\u3093\u3093\u3093\u3093\u3093\u3093\u3093\u3093\u3063\u3063\u3063\uFF01\uFF01\uFF01\u3000\u3042\u3041\u3063\uFF01\u3000\u3042\u3041\u3041\u3041\u3041\u3041\u3041\u3041\u3063\uFF01\uFF01\u300D"
    CG: 8
    SE: 
    Voice: 
  - ID: 44
    CharaName: 
    ScenarioText: "\u305D\u3046\u3057\u3066\u30B4\u30D6\u30EA\u30F3\u305F\u3061\u306E\u5C04\u7CBE\u306B\u5408\u308F\u305B\u3066\u3001\u30D5\u30A3\u30FC\u30CA\u306F\u7D76\u9802\u3092\u8FCE\u3048\u3066\u3057\u307E\u3046\u3002\n\u767D\u304F\u6C5A\u3055\u308C\u305F\u4F53\u306F\u5FEB\u697D\u306B\u9707\u3048\u3066\u3044\u304F\u3002\u9854\u306F\u7D05\u6F6E\u3057\u305F\u307E\u307E\u3001\u71B1\u3044\u5410\u606F\u3092\u6F0F\u3089\u3057\u7D9A\u3051\u308B\u3002"
    CG: 0
    SE: 
    Voice: 
  - ID: 45
    CharaName: "\u30D5\u30A3\u30FC\u30CA"
    ScenarioText: "\u300C\u3042\u3041\u2026\u2026\u3042\u3063\u2026\u2026\u3046\u3045\u2026\u2026\u300D"
    CG: 0
    SE: 
    Voice: 
  - ID: 46
    CharaName: "\u30B4\u30D6\u30EA\u30F3\u305F\u3061"
    ScenarioText: "\u300C\u30B2\u30D2\u30C3\uFF01\u3000\u30B2\u30D2\u30D2\u30D2\u30D2\u30C3\uFF01\u3000\u30B1\u30D2\u30D2\u30D2\u30D2\u30D2\u30C3\uFF01\u300D"
    CG: 0
    SE: 
    Voice: 
  - ID: 47
    CharaName: 
    ScenarioText: "\u7121\u7406\u3084\u308A\u7D76\u9802\u3092\u8FCE\u3048\u3055\u305B\u3089\u308C\u305F\u30D5\u30A3\u30FC\u30CA\u306F\u3001\u7126\u70B9\u304C\u5B9A\u307E\u3089\u306A\u304F\u306A\u3063\u3066\u3044\u305F\u3002\n\u3050\u308B\u3050\u308B\u3068\u56DE\u308A\u7D9A\u3051\u308B\u8996\u754C\u5168\u90E8\u304C\u30B4\u30D6\u30EA\u30F3\u305F\u3061\u304C\u8822\u3044\u3066\u3044\u308B\u3002\n\u8584\u308C\u3066\u3044\u304F\u610F\u8B58\u306E\u4E2D\u3001\u8179\u306E\u7ACB\u3064\u7B11\u3044\u58F0\u3060\u3051\u304C\u3044\u3064\u307E\u3067\u3082\u805E\u3053\u3048\u7D9A\u3051\u3066\u3044\u305F\u3002"
    CG: 0
    SE: 
    Voice: 
