%YAML 1.1
%TAG !u! tag:unity3d.com,2011:
--- !u!114 &11400000
MonoBehaviour:
  m_ObjectHideFlags: 8
  m_CorrespondingSourceObject: {fileID: 0}
  m_PrefabInternal: {fileID: 0}
  m_GameObject: {fileID: 0}
  m_Enabled: 1
  m_EditorHideFlags: 0
  m_Script: {fileID: 11500000, guid: 09c5d2a8225c5404fbb331d052c4b137, type: 3}
  m_Name: Hscenario_BOSSOrc_03
  m_EditorClassIdentifier: 
  param:
  - ID: 1
    CharaName: "\u30D5\u30A3\u30FC\u30CA"
    ScenarioText: "\u300C\u306F\u3041\u2026\u2026\u306F\u3041\u2026\u2026\u306F\u3041\u2026\u2026\u3046\u3045\u3045\u3063\u2026\u2026\u3093\u3063\u3001\u304F\u3063\u2026\u2026\u306F\u3041\u3001\u306F\u3041\u2026\u2026\u300D"
    CG: 0
    SE: 
    Voice: 
  - ID: 2
    CharaName: 
    ScenarioText: "\u8155\u3092\u63B4\u307E\u308C\u305F\u307E\u307E\u306E\u30D5\u30A3\u30FC\u30CA\u3060\u3063\u305F\u304C\u3001\u62B5\u6297\u3059\u308B\u69D8\u5B50\u306A\u3069\u4E00\u5207\u898B\u305B\u308B\u3053\u3068\u306F\u306A\u304B\u3063\u305F\u3002\n\u305D\u308C\u3069\u3053\u308D\u304B\u3001\u4E8C\u5EA6\u30AA\u30FC\u30AF\u306B\u72AF\u3055\u308C\u305F\u3053\u3068\u3092\u601D\u3044\u8FD4\u3057\u4F53\u304C\u53CD\u5FDC\u3057\u59CB\u3081\u3066\u3044\u308B\u3002\n\u7D05\u6F6E\u3057\u305F\u9854\u306E\u307E\u307E\u3059\u3067\u306B\u7518\u3044\u5410\u606F\u3092\u6F0F\u3089\u3057\u59CB\u3081\u3066\u3044\u305F\u3002"
    CG: 0
    SE: 
    Voice: 
  - ID: 3
    CharaName: "\u30DC\u30B9\u30AA\u30FC\u30AF"
    ScenarioText: "\u300C\u30B0\u30EB\u30EB\u30EB\u30EB\u30EB\u30EB\u30EB\u2026\u2026\u300D"
    CG: 0
    SE: 
    Voice: 
  - ID: 4
    CharaName: 
    ScenarioText: "\u30AA\u30FC\u30AF\u81EA\u8EAB\u306F\u30D5\u30A3\u30FC\u30CA\u306E\u69D8\u5B50\u306A\u3069\u3069\u3046\u3067\u3082\u3044\u3044\u3088\u3046\u3060\u3063\u305F\u3002\n\u524D\u56DE\u3001\u524D\u3005\u56DE\u306E\u5FEB\u611F\u3092\u899A\u3048\u3066\u3044\u308B\u306E\u306F\u4F55\u3082\u30D5\u30A3\u30FC\u30CA\u3060\u3051\u3067\u306F\u306A\u3044\u306E\u3060\u3002\n\u5FEB\u697D\u3092\u6C42\u3081\u3001\u30AA\u30FC\u30AF\u306E\u8089\u68D2\u304C\u786C\u3055\u3092\u5897\u3057\u3066\u3044\u304F\u3002"
    CG: 0
    SE: 
    Voice: 
  - ID: 5
    CharaName: "\u30D5\u30A3\u30FC\u30CA"
    ScenarioText: "\u300C\u306F\u3041\u3001\u306F\u3041\u3001\u306F\u3041\u2026\u2026\u3093\u3093\u3063\u2026\u2026\u3042\u3041\u3063\u2026\u2026\u3084\u3063\u3071\u308A\u3001\u5927\u304D\u3044\u2026\u2026\n\u3000\u3053\u308C\u3001\u30C0\u30E1\u3060\u2026\u2026\u30C0\u30E1\u3001\u306A\u306E\u306B\u3063\u2026\u2026\u3042\u3063\u2026\u2026\u306F\u3041\u3001\u306F\u3041\u3001\u306F\u3041\u2026\u2026\u300D"
    CG: 0
    SE: 
    Voice: 
  - ID: 6
    CharaName: 
    ScenarioText: "\u304A\u5C3B\u306B\u62BC\u3057\u4ED8\u3051\u3089\u308C\u308B\u30DA\u30CB\u30B9\u306E\u786C\u3055\u3092\u611F\u3058\u306A\u304C\u3089\u3001\u305D\u308C\u3067\u8CAB\u304B\u308C\u308B\u3053\u3068\u3092\u60F3\u50CF\u3057\u3066\u3057\u307E\u3046\u3002\n\u305D\u308C\u3060\u3051\u3067\u671F\u5F85\u306B\u80F8\u304C\u8E0A\u308A\u3001\u80F8\u306E\u9F13\u52D5\u304C\u65E9\u307E\u3063\u3066\u3044\u304F\u306E\u3060\u3002\u547C\u5438\u3082\u81EA\u7136\u3068\u8352\u304F\u306A\u3063\u3066\u3044\u304F\u3002\n\u30D5\u30A3\u30FC\u30CA\u306F\u3053\u306E\u72B6\u6CC1\u3092\u53D7\u3051\u5165\u308C\u3066\u304A\u308A\u3001\u8EAB\u3082\u5FC3\u3082\u30BB\u30C3\u30AF\u30B9\u3092\u6C42\u3081\u3066\u3057\u307E\u3063\u3066\u3044\u305F\u3002"
    CG: 0
    SE: 
    Voice: 
  - ID: 7
    CharaName: "\u30D5\u30A3\u30FC\u30CA"
    ScenarioText: "\u300C\u2026\u2026\u5165\u308C\u3066\u3001\u304F\u3060\u3055\u3044\u2026\u2026\u3093\u3063\u2026\u2026\u306F\u3041\u3001\u306F\u3041\u3001\u306F\u3041\u2026\u2026\u3002\n\u3000\u305D\u306E\u3001\u5927\u304D\u306A\u3001\u304A\u3061\u3093\u307D\u3092\u2026\u2026\u79C1\u306E\u3001\u304A\u307E\u3093\u3053\u306B\u2026\u2026\u5165\u308C\u3066\u3047\u2026\u2026\u6211\u6162\u3067\u304D\u306A\u3044\u306E\u3049\u2026\u2026\u300D"
    CG: 0
    SE: 
    Voice: 
  - ID: 8
    CharaName: 
    ScenarioText: "\u3064\u3044\u306B\u306F\u81EA\u3089\u30AA\u30FC\u30AF\u306E\u8089\u68D2\u3092\u6C42\u3081\u3001\u30D5\u30A3\u30FC\u30CA\u306F\u61C7\u9858\u3059\u308B\u3088\u3046\u306B\u58F0\u3092\u4E0A\u3052\u3066\u3044\u305F\u3002\n\u5F7C\u5973\u306E\u982D\u306E\u4E2D\u3067\u81A8\u308C\u4E0A\u304C\u308B\u6B32\u6C42\u3002\u6C17\u6301\u3061\u3088\u304F\u306A\u308A\u305F\u3044\u3068\u3044\u3046\u601D\u3044\u306B\u3001\u30D5\u30A3\u30FC\u30CA\u81EA\u8EAB\u304C\u3042\u3063\u3055\u308A\u3068\n\u8CA0\u3051\u3066\u3057\u307E\u3063\u3066\u3044\u305F\u3002"
    CG: 0
    SE: 
    Voice: 
  - ID: 9
    CharaName: "\u30DC\u30B9\u30AA\u30FC\u30AF"
    ScenarioText: "\u300C\u30B0\u30EB\u30EB\u30EB\u2026\u2026\u30AC\u30A1\u30A1\u30A1\u30A1\u30A1\u30C3\uFF01\u300D"
    CG: 1
    SE: 
    Voice: 
  - ID: 10
    CharaName: "\u30D5\u30A3\u30FC\u30CA"
    ScenarioText: "\u300C\u3042\u3050\u3063\uFF01\u3000\u3093\u3093\u3093\u3093\u3093\u3063\u3063\uFF01\uFF01\u3000\u3042\u3063\u3001\u3042\u3041\u3041\u3063\uFF01\uFF01\u3000\u3042\u3041\u3041\u3041\u3041\u3041\u3041\u3063\u3063\u266A\u266A\u300D"
    CG: 0
    SE: 
    Voice: 
  - ID: 11
    CharaName: 
    ScenarioText: "\u30AA\u30FC\u30AF\u304C\u8089\u68D2\u3092\u4E00\u6C17\u306B\u81A3\u5185\u306B\u4FB5\u5165\u3055\u305B\u3066\u3044\u304F\u3002\n\u3059\u3067\u306B\u6FE1\u308C\u3066\u3044\u305F\u81A3\u7A74\u306F\u30BA\u30D6\u30BA\u30D6\u3068\u6C34\u97F3\u3092\u4E0A\u3052\u306A\u304C\u3089\u3001\u6ED1\u3089\u304B\u306B\u30DA\u30CB\u30B9\u3092\u98F2\u307F\u8FBC\u3093\u3067\u3044\u3063\u305F\u3002"
    CG: 0
    SE: 
    Voice: 
  - ID: 12
    CharaName: 
    ScenarioText: "\u633F\u5165\u3068\u540C\u6642\u306B\u3001\u30D5\u30A3\u30FC\u30CA\u306F\u8EFD\u304F\u7D76\u9802\u3092\u8FCE\u3048\u3066\u3044\u305F\u3002\n\u5B50\u5BAE\u304C\u75BC\u304D\u3001\u5927\u304D\u306A\u8089\u68D2\u3067\u304B\u304D\u56DE\u3055\u308C\u308B\u3053\u3068\u3092\u671B\u3093\u3067\u3044\u305F\u3068\u3053\u308D\u306B\u3001\u305D\u306E\u6B32\u671B\u3092\u53F6\u3048\u308B\u304B\u306E\u5982\u304F\n\u30DA\u30CB\u30B9\u306F\u81A3\u58C1\u3092\u64E6\u308A\u4E0A\u3052\u306A\u304C\u3089\u5965\u3078\u5965\u3078\u3068\u7A81\u3063\u8FBC\u3093\u3067\u304F\u308B\u3002"
    CG: 0
    SE: 
    Voice: 
  - ID: 13
    CharaName: 
    ScenarioText: "\u524D\u306B\u72AF\u3055\u308C\u305F\u3068\u304D\u3088\u308A\u3082\u306F\u308B\u304B\u306B\u5927\u304D\u306A\u5FEB\u697D\u304C\u30D5\u30A3\u30FC\u30CA\u306E\u4F53\u3092\u8972\u3063\u3066\u3044\u304F\u3002\n\u3088\u308A\u591A\u304F\u306E\u5FEB\u611F\u3092\u611F\u3058\u308B\u305F\u3081\u3001\u5F7C\u5973\u81EA\u8EAB\u306E\u4F53\u304C\u654F\u611F\u306B\u5909\u8CEA\u3057\u3066\u3044\u308B\u306E\u304B\u3082\u3057\u308C\u306A\u3044\u3002\n\u305D\u3046\u601D\u3048\u308B\u307B\u3069\u3001\u3042\u3063\u3051\u306A\u304F\u30D5\u30A3\u30FC\u30CA\u306F\u30AA\u30FC\u30AF\u306E\u8089\u68D2\u3067\u4E0E\u3048\u3089\u308C\u308B\u6C17\u6301\u3061\u3088\u3055\u306B\u5C48\u670D\u3057\u3066\u3044\u305F\u3002"
    CG: 0
    SE: 
    Voice: 
  - ID: 14
    CharaName: "\u30D5\u30A3\u30FC\u30CA"
    ScenarioText: "\u300C\u3042\u3063\u266A\u3000\u3042\u3063\u266A\u3000\u3042\u3041\u3063\u266A\u3000\u3093\u3093\u3093\u3063\uFF01\u3000\u3042\u3063\u3001\u3093\u3063\u3001\u3042\u3093\u3063\u266A\u3000\u305D\u3053\u3063\u3001\u30C0\u30E1\u2026\u2026\u3002\n\u3000\u30C0\u30E1\u3047\u3063\u266A\u3000\u6C17\u6301\u3061\u3088\u3059\u304E\u3066\u2026\u2026\u304A\u304B\u3057\u304F\u3063\u2026\u2026\u306A\u308B\u3045\u3045\u3063\u266A\u300D"
    CG: 2
    SE: 
    Voice: 
  - ID: 15
    CharaName: 
    ScenarioText: "\u30AA\u30FC\u30AF\u306F\u8170\u3092\u52E2\u3044\u3088\u304F\u632F\u308A\u59CB\u3081\u308B\u3002\u7D76\u9802\u3092\u8FCE\u3048\u305F\u3070\u304B\u308A\u306E\u30D5\u30A3\u30FC\u30CA\u306E\u3053\u3068\u306A\u3069\u69CB\u3046\u69D8\u5B50\u306A\u3069\u5FAE\u5875\n\u3082\u306A\u304B\u3063\u305F\u3002\n\u305F\u3060\u5FEB\u697D\u306B\u5F93\u3044\u3001\u518D\u3073\u30D5\u30A3\u30FC\u30CA\u306E\u4E2D\u306B\u5C04\u7CBE\u3092\u3059\u308B\u305F\u3081\u3060\u3051\u306B\u6FC0\u3057\u304F\u30D4\u30B9\u30C8\u30F3\u3057\u7D9A\u3051\u308B\u3002"
    CG: 0
    SE: 
    Voice: 
  - ID: 16
    CharaName: 
    ScenarioText: "\u3055\u308C\u308B\u304C\u307E\u307E\u306E\u30D5\u30A3\u30FC\u30CA\u3060\u3063\u305F\u304C\u3001\u5F7C\u5973\u3082\u307E\u305F\u5FEB\u697D\u306B\u8EAB\u3092\u59D4\u306D\u3001\u6DEB\u3089\u306B\u5598\u304E\u58F0\u3092\u4E0A\u3052\u7D9A\u3051\u308B\u3002\n\u7D76\u9802\u3092\u8FCE\u3048\u3001\u606F\u3064\u304F\u6687\u3082\u306A\u304F\u81A3\u8089\u3092\u3080\u3055\u307C\u3089\u308C\u3066\u3044\u304F\u3053\u3068\u306B\u3001\u5FEB\u611F\u3092\u899A\u3048\u3066\u3044\u305F\u3002\n\u654F\u611F\u306B\u306A\u3063\u3066\u3044\u308B\u4F53\u306B\u5F37\u3044\u5FEB\u697D\u304C\u53E9\u304D\u3064\u3051\u3089\u308C\u3066\u3044\u304F\u3002"
    CG: 0
    SE: 
    Voice: 
  - ID: 17
    CharaName: "\u30D5\u30A3\u30FC\u30CA"
    ScenarioText: "\u300C\u3042\u3063\u266A\u3000\u3042\u3063\u266A\u3000\u3042\u3063\u266A\u3000\u3042\u3041\u3093\u3063\u266A\u3000\u3093\u3093\u3063\u266A\u3000\u3093\u3045\u3063\u266A\u3000\u3093\u3063\u266A\u3000\u3093\u3093\u3063\u266A\u300D"
    CG: 0
    SE: 
    Voice: 
  - ID: 18
    CharaName: 
    ScenarioText: "\u3050\u3061\u3085\u3050\u3061\u3085\u3068\u3044\u3084\u3089\u3057\u3044\u97F3\u3092\u7ACB\u3066\u306A\u304C\u3089\u611B\u6DB2\u304C\u6B62\u3081\u3069\u306A\u304F\u3053\u307C\u308C\u3066\u3044\u304F\u3002\n\u81A3\u8089\u306F\u8089\u68D2\u3092\u7F8E\u5473\u3057\u304F\u982C\u5F35\u308B\u3088\u3046\u306B\u3001\u53CE\u7E2E\u3092\u7D9A\u3051\u3066\u3044\u305F\u3002\u643E\u308A\u4E0A\u3052\u308B\u3088\u3046\u306A\u305D\u306E\u52D5\u304D\u306F\u30AA\u30FC\u30AF\u306B\n\u5FC3\u5730\u306E\u826F\u3044\u5FEB\u611F\u3092\u4E0E\u3048\u3066\u3044\u308B\u3088\u3046\u3060\u3002"
    CG: 0
    SE: 
    Voice: 
  - ID: 19
    CharaName: "\u30DC\u30B9\u30AA\u30FC\u30AF"
    ScenarioText: "\u300C\u30B0\u30EB\u30EB\u30EB\u30EB\u30C3\u3001\u30B0\u30EB\u30EB\u30EB\u30EB\u30EB\u30EB\u30C3\u300D"
    CG: 0
    SE: 
    Voice: 
  - ID: 20
    CharaName: 
    ScenarioText: "\u30AA\u30FC\u30AF\u304C\u5589\u3092\u9CF4\u3089\u3057\u306A\u304C\u3089\u30B0\u30E9\u30A4\u30F3\u30C9\u3059\u308B\u901F\u5EA6\u3092\u901F\u3081\u3066\u3044\u304F\u3002\n\u81A3\u58C1\u3092\u3048\u3050\u308A\u3001\u62BC\u3057\u62E1\u3052\u3001\u5B50\u5BAE\u3092\u62BC\u3057\u3064\u3076\u3057\u306A\u304C\u3089\u3001\u8089\u30D2\u30C0\u306E\u611F\u89E6\u3092\u3088\u308A\u5F37\u3044\u523A\u6FC0\u306B\u5909\u3048\u308B\u305F\u3081\n\u8CAA\u6B32\u306B\u30D5\u30A3\u30FC\u30CA\u306E\u4F53\u3092\u6C42\u3081\u3066\u3044\u3063\u305F\u3002"
    CG: 0
    SE: 
    Voice: 
  - ID: 21
    CharaName: "\u30D5\u30A3\u30FC\u30CA"
    ScenarioText: "\u300C\u3093\u3093\u3063\u266A\u3000\u3093\u3049\u3063\u266A\u3000\u3093\u3049\u3049\u3063\u266A\u3000\u3093\u3063\u3001\u3093\u3093\u3093\u3093\u3093\u3093\u3063\u266A\u3000\u3042\u3063\u266A\u3000\u3060\u3081\u3063\u266A\u3000\u30C0\u30E1\u3063\u266A\n\u3000\u307E\u305F\u3063\u3001\u30A4\u3063\u3061\u3083\u3063\u2026\u2026\u30A4\u3063\u3061\u3083\u3046\u3063\u2026\u2026\u304B\u3089\u3041\u3041\u3041\u3041\u3041\u3041\u3041\u3041\u3063\u266A\u266A\u266A\u300D"
    CG: 0
    SE: 
    Voice: 
  - ID: 22
    CharaName: 
    ScenarioText: "\u30C8\u30ED\u30C8\u30ED\u306B\u8569\u3051\u304D\u3063\u305F\u8868\u60C5\u306E\u307E\u307E\u3001\u30D5\u30A3\u30FC\u30CA\u306F\u4E8C\u5EA6\u76EE\u306E\u7D76\u9802\u3092\u8FCE\u3048\u3088\u3046\u3068\u3057\u3066\u3044\u305F\u3002\n\u305D\u308C\u306B\u547C\u5FDC\u3059\u308B\u5F62\u3067\u3001\u81A3\u8089\u3082\u8089\u68D2\u306B\u7D61\u307F\u3064\u304D\u306A\u304C\u3089\u643E\u308A\u4E0A\u3052\u308B\u3002"
    CG: 0
    SE: 
    Voice: 
  - ID: 23
    CharaName: 
    ScenarioText: "\u3082\u306F\u3084\u30D5\u30A3\u30FC\u30CA\u306E\u4E2D\u306F\u30AA\u30FC\u30AF\u306E\u8089\u68D2\u3092\u5C04\u7CBE\u3055\u305B\u308B\u305F\u3081\u3060\u3051\u306B\u8108\u52D5\u3092\u7D9A\u3051\u3066\u3044\u305F\u3002\n\u6975\u4E0A\u306E\u5FEB\u697D\u304C\u30AA\u30FC\u30AF\u306E\u5C04\u7CBE\u611F\u3092\u717D\u308A\u3001\u7D76\u9802\u3078\u3068\u5C0E\u3044\u3066\u3044\u304F\u3002\n\u305D\u3046\u3057\u3066\u9650\u754C\u3092\u8FCE\u3048\u305F\u30AA\u30FC\u30AF\u306F\u3001\u5420\u3048\u306A\u304C\u3089\u6DF1\u3005\u3068\u5B50\u5BAE\u53E3\u306B\u7A81\u304D\u523A\u3057\u306A\u304C\u3089\u7D76\u9802\u3092\u8FCE\u3048\u305F\u3002"
    CG: 0
    SE: 
    Voice: 
  - ID: 24
    CharaName: "\u30DC\u30B9\u30AA\u30FC\u30AF"
    ScenarioText: "\u300C\u30AC\u30A1\u30A1\u30A1\u30A1\u30A1\u30C3\u30C3\uFF01\uFF01\u3000\u30A2\u30A1\u30A1\u30A1\u30A1\u30A1\u30A1\u30A1\u30C3\uFF01\uFF01\uFF01\u300D"
    CG: 0
    SE: 
    Voice: 
  - ID: 25
    CharaName: "\u30D5\u30A3\u30FC\u30CA"
    ScenarioText: "\u300C\u3093\u3049\u3049\u3049\u3049\u3049\u3049\u3049\u3049\u3045\u3045\u3045\u3045\u3045\u3045\u3045\u3045\u3045\u3046\u3045\u3045\u3046\u3045\u3045\u3045\u3045\u3063\u3063\uFF01\u266A\u266A\u300D"
    CG: 0
    SE: 
    Voice: 
  - ID: 26
    CharaName: 
    ScenarioText: "\u3069\u3077\u3069\u3077\u3069\u3077\u3063\uFF01\u3000\u3076\u307C\u3070\u3063\uFF01\u3000\u3069\u3073\u3085\u308B\u3073\u3085\u308B\u3073\u3085\u308B\u3073\u3085\u3061\u3085\u3063\uFF01\u3000\u3073\u3085\u30FC\u3063\uFF01\u3000\u3073\u3085\u30FC\u3063\uFF01\n\u3073\u3085\u3073\u3085\u3073\u3085\u3063\uFF01\u3000\u3073\u3085\u308B\u3076\u3063\uFF01\u3000\u3073\u3085\u30FC\u3063\uFF01\uFF01\u3000\u2026\u2026\u3069\u304F\u3063\u3001\u3069\u304F\u3093\u3063\u2026\u2026\u3069\u304F\u3093\u3063\u3002"
    CG: 3
    SE: 
    Voice: 
  - ID: 27
    CharaName: 
    ScenarioText: "\u7206\u767A\u7684\u306A\u5C04\u7CBE\u3068\u5171\u306B\u30D5\u30A3\u30FC\u30CA\u306F\u7D76\u9802\u3092\u8FCE\u3048\u3066\u3044\u305F\u3002\u4ECA\u307E\u3067\u306E\u4E00\u756A\u306E\u5FEB\u611F\u3060\u3068\u601D\u3063\u3066\u3044\u305F\u3082\u306E\u3088\u308A\n\u3082\u6570\u6BB5\u4E0A\u306E\u5FEB\u611F\u304C\u5F7C\u5973\u306E\u5168\u8EAB\u306B\u8972\u3044\u639B\u304B\u304B\u308B\u3002\n\u5168\u8EAB\u304C\u75FA\u308C\u3001\u4F53\u306E\u9707\u3048\u304C\u6B62\u307E\u3089\u306A\u3044\u3002"
    CG: 0
    SE: 
    Voice: 
  - ID: 28
    CharaName: "\u30D5\u30A3\u30FC\u30CA"
    ScenarioText: "\u7206\u767A\u7684\u306A\u5C04\u7CBE\u3068\u5171\u306B\u30D5\u30A3\u30FC\u30CA\u306F\u7D76\u9802\u3092\u8FCE\u3048\u3066\u3044\u305F\u3002\u4ECA\u307E\u3067\u306E\u4E00\u756A\u306E\u5FEB\u611F\u3060\u3068\u601D\u3063\u3066\u3044\u305F\u3082\u306E\u3088\u308A\n\u3082\u6570\u6BB5\u4E0A\u306E\u5FEB\u611F\u304C\u5F7C\u5973\u306E\u5168\u8EAB\u306B\u8972\u3044\u639B\u304B\u304B\u308B\u3002\n\u5168\u8EAB\u304C\u75FA\u308C\u3001\u4F53\u306E\u9707\u3048\u304C\u6B62\u307E\u3089\u306A\u3044\u3002"
    CG: 0
    SE: 
    Voice: 
  - ID: 29
    CharaName: 
    ScenarioText: "\u4ECA\u307E\u3067\u4EE5\u4E0A\u306B\u654F\u611F\u306B\u306A\u3063\u3066\u3044\u308B\u81A3\u5185\u304B\u3089\u92ED\u3044\u5FEB\u611F\u304C\u8133\u3078\u76F4\u63A5\u4F1D\u308F\u308A\u7D9A\u3051\u308B\u3002\n\u3069\u304F\u3093\u3001\u3069\u304F\u3093\u3068\u7CBE\u6DB2\u304C\u653E\u51FA\u3055\u308C\u308B\u305F\u3073\u306B\u52D5\u304F\u8089\u68D2\u304C\u8DF3\u306D\u308B\u523A\u6FC0\u306B\u5408\u308F\u305B\u3001\u5FEB\u611F\u304C\u62BC\u3057\u5BC4\u305B\u7D9A\u3051\n\u3066\u3044\u308B\u306E\u3067\u3042\u308B\u3002"
    CG: 0
    SE: 
    Voice: 
  - ID: 30
    CharaName: "\u30D5\u30A3\u30FC\u30CA"
    ScenarioText: "\u300C\u3042\u3041\u3041\u266A\u3000\u2026\u2026\u3042\u3041\u3041\u2026\u2026\u266A\u3000\u3042\u306F\u3001\u306F\u306F\u306F\u306F\u306F\u306F\u306F\u306F\u306F\u306F\u306F\u2026\u2026\u266A\u300D"
    CG: 4
    SE: 
    Voice: 
  - ID: 31
    CharaName: 
    ScenarioText: "\u6C17\u304C\u4ED8\u304F\u3068\u5F7C\u5973\u306F\u7B11\u3063\u3066\u3057\u307E\u3063\u3066\u3044\u305F\u3002\n\u5F37\u3059\u304E\u308B\u5FEB\u697D\u306F\u30D5\u30A3\u30FC\u30CA\u306E\u7406\u6027\u3092\u6839\u3053\u305D\u304E\u5439\u304D\u98DB\u3070\u3057\u3066\u3057\u307E\u3063\u305F\u306E\u3060\u3002\n\u6B8B\u3063\u3066\u3044\u308B\u306E\u306F\u5FEB\u697D\u3092\u611F\u3058\u3066\u3044\u305F\u3044\u3068\u3044\u3046\u6B32\u6C42\u306E\u307F\u3002"
    CG: 0
    SE: 
    Voice: 
  - ID: 32
    CharaName: 
    ScenarioText: "\u4ECA\u5F8C\u3082\u4ECA\u3068\u540C\u3058\u3001\u6700\u9AD8\u306E\u5FEB\u697D\u304C\u5473\u308F\u3044\u7D9A\u3051\u308B\u3053\u3068\u304C\u3067\u304D\u308B\u3002\n\u305D\u306E\u3053\u3068\u304C\u5B09\u3057\u304F\u3066\u305F\u307E\u3089\u306A\u3044\u306E\u3060\u3002\n\u305A\u3063\u3068\u3001\u305A\u3063\u3068\u2026\u2026\u3053\u306E\u307E\u307E\u5FEB\u611F\u306B\u6EBA\u308C\u7D9A\u3051\u3001\u6C88\u3093\u3067\u3044\u304F\u3053\u3068\u3092\u5FC3\u306E\u5E95\u304B\u3089\u9858\u3063\u3066\u3044\u305F\u3002"
    CG: 0
    SE: 
    Voice: 
  - ID: 33
    CharaName: "\u30D5\u30A3\u30FC\u30CA"
    ScenarioText: "\u300C\u3042\u306F\u266A\u3000\u3042\u306F\u306F\u306F\u306F\u306F\u2026\u2026\u266A\u3000\u3082\u3063\u3068\u3001\u6C17\u6301\u3061\u304F\u3001\u306A\u308A\u305F\u3044\u2026\u2026\u266A\n\u3000\u3061\u3093\u307D\u3001\u3061\u3093\u307D\u2026\u2026\u3061\u3087\u3046\u3089\u3044\u3063\u266A\u3000\u3048\u3078\u3078\u3078\u266A\u3000\u3050\u3061\u3085\u3050\u3061\u3085\u3001\u305A\u307C\u305A\u307C\u3001\u3059\u304D\u3043\u266A\u300D"
    CG: 0
    SE: 
    Voice: 
  - ID: 34
    CharaName: 
    ScenarioText: "\u3060\u3089\u3057\u306A\u304F\u958B\u3044\u305F\u53E3\u304B\u3089\u306F\u6291\u63DA\u306E\u306A\u3044\u4E7E\u3044\u305F\u7B11\u3044\u3068\u8089\u68D2\u3092\u6B32\u3057\u304C\u308B\u58F0\u304C\u6F0F\u308C\u7D9A\u3051\u308B\u3002\n\u30AA\u30FC\u30AF\u306E\u51CC\u8FB1\u306B\u3088\u3063\u3066\u6C5A\u3055\u308C\u3066\u3057\u307E\u3063\u305F\u30D5\u30A3\u30FC\u30CA\u306F\u5B8C\u5168\u306B\u58CA\u308C\u3066\u3057\u307E\u3063\u305F\u3002"
    CG: 0
    SE: 
    Voice: 
  - ID: 35
    CharaName: 
    ScenarioText: "\u95C7\u306B\u67D3\u307E\u308A\u865A\u7A7A\u3092\u898B\u4E0A\u3052\u305F\u307E\u307E\u7126\u70B9\u306E\u5B9A\u307E\u3089\u306A\u3044\u77B3\u306F\u3001\u602A\u3057\u304F\u63FA\u308C\u7D9A\u3051\u308B\u3060\u3051\u3002\n\u5FEB\u697D\u306B\u56DA\u308F\u308C\u305F\u307E\u307E\u3001\u4E8C\u5EA6\u3068\u623B\u3063\u3066\u3053\u308C\u306A\u3044\u865A\u306E\u5E95\u3078\u3086\u3063\u304F\u308A\u3068\u5815\u3061\u3066\u3044\u3063\u305F\u3002"
    CG: 0
    SE: 
    Voice: 
  - ID: 0
    CharaName: 
    ScenarioText: 
    CG: 0
    SE: 
    Voice: 
  - ID: 0
    CharaName: 
    ScenarioText: 
    CG: 0
    SE: 
    Voice: 
  - ID: 0
    CharaName: 
    ScenarioText: 
    CG: 0
    SE: 
    Voice: 
  - ID: 0
    CharaName: 
    ScenarioText: 
    CG: 0
    SE: 
    Voice: 
  - ID: 0
    CharaName: 
    ScenarioText: 
    CG: 0
    SE: 
    Voice: 
  - ID: 0
    CharaName: 
    ScenarioText: 
    CG: 0
    SE: 
    Voice: 
  - ID: 0
    CharaName: 
    ScenarioText: 
    CG: 0
    SE: 
    Voice: 
  - ID: 0
    CharaName: 
    ScenarioText: 
    CG: 0
    SE: 
    Voice: 
  - ID: 0
    CharaName: 
    ScenarioText: 
    CG: 0
    SE: 
    Voice: 
  - ID: 0
    CharaName: 
    ScenarioText: 
    CG: 0
    SE: 
    Voice: 
