%YAML 1.1
%TAG !u! tag:unity3d.com,2011:
--- !u!114 &11400000
MonoBehaviour:
  m_ObjectHideFlags: 8
  m_CorrespondingSourceObject: {fileID: 0}
  m_PrefabInternal: {fileID: 0}
  m_GameObject: {fileID: 0}
  m_Enabled: 1
  m_EditorHideFlags: 0
  m_Script: {fileID: 11500000, guid: 09c5d2a8225c5404fbb331d052c4b137, type: 3}
  m_Name: Hscenario_Goblin_03
  m_EditorClassIdentifier: 
  param:
  - ID: 1
    CharaName: "\u30D5\u30A3\u30FC\u30CA"
    ScenarioText: "\u300C\u306F\u3041\u3063\u2026\u2026\u306F\u3041\u3063\u2026\u2026\u306F\u3041\u3063\u2026\u2026\u3093\u3093\u3045\u3063\u2026\u2026\u3093\u3093\u3093\u3063\u266A\u300D"
    CG: 0
    SE: 
    Voice: 
  - ID: 2
    CharaName: "\u30B4\u30D6\u30EA\u30F3\u305F\u3061"
    ScenarioText: "\u300C\u30B2\u30C3\u30B2\u30C3\u30B2\u30C3\u30B2\u30C3\uFF01\u3000\u30B1\u30D2\u30D2\u30C3\uFF01\u300D"
    CG: 0
    SE: 
    Voice: 
  - ID: 3
    CharaName: 
    ScenarioText: "\u5168\u8EAB\u3092\u7CBE\u6DB2\u307E\u307F\u308C\u306B\u3057\u3066\u3082\u306A\u304A\u3001\u30B4\u30D6\u30EA\u30F3\u305F\u3061\u306E\u6027\u6B32\u306F\u6CBB\u307E\u308B\u69D8\u5B50\u306F\u306A\u3044\u3002\n\u30D5\u30A3\u30FC\u30CA\u306B\u3076\u3061\u307E\u3051\u3066\u306F\u5165\u308C\u4EE3\u308F\u308A\u7ACB\u3061\u4EE3\u308F\u308A\u3067\u5225\u306E\u500B\u4F53\u304C\u30D5\u30A3\u30FC\u30CA\u306E\u4F53\u3092\u72AF\u3057\u5C3D\u304F\u3057\u3066\u3044\u304F\u3002"
    CG: 0
    SE: 
    Voice: 
  - ID: 4
    CharaName: "\u30D5\u30A3\u30FC\u30CA"
    ScenarioText: "\u300C\u3042\u3045\u2026\u2026\u3093\u3063\u2026\u2026\u3042\u3041\u3041\u3041\u3063\u266A\u300D"
    CG: 0
    SE: 
    Voice: 
  - ID: 5
    CharaName: 
    ScenarioText: "\u8089\u68D2\u3067\u81A3\u5185\u3092\u597D\u304D\u52DD\u624B\u306B\u304B\u304D\u56DE\u3055\u308C\u3001\u304A\u3063\u3071\u3044\u306B\u3082\u5E38\u306B\u30DA\u30CB\u30B9\u3092\u3053\u3059\u308A\u4ED8\u3051\u3089\u308C\u3066\u3044\u308B\u3002\n\u81EA\u8EAB\u306E\u6027\u6B32\u3092\u6E80\u305F\u3059\u305F\u3081\u3060\u3051\u3001\u5C04\u7CBE\u3057\u305F\u3044\u304C\u305F\u3081\u3060\u3051\u306E\u30D4\u30B9\u30C8\u30F3\u904B\u52D5\u306B\u3082\u3001\u30D5\u30A3\u30FC\u30CA\u306E\u4F53\u306F\u6FC0\u3057\n\u304F\u611F\u3058\u3066\u3057\u307E\u3063\u3066\u3044\u308B\u3002"
    CG: 0
    SE: 
    Voice: 
  - ID: 6
    CharaName: 
    ScenarioText: "\u6027\u6B32\u51E6\u7406\u3092\u3059\u308B\u305F\u3081\u3060\u3051\u306E\u9053\u5177\u3068\u3057\u3066\u4E71\u66B4\u306B\u6271\u308F\u308C\u3001\u30D5\u30A3\u30FC\u30CA\u306E\u4F53\u306F\u611F\u3058\u3066\u3057\u307E\u3046\u3002\n\u5F7C\u5973\u306E\u4F53\u306F\u5FEB\u697D\u3092\u6C42\u3081\u308B\u3053\u3068\u3057\u304B\u8003\u3048\u3066\u3044\u306A\u304B\u3063\u305F\u3002\n\u30B4\u30D6\u30EA\u30F3\u306B\u72AF\u3055\u308C\u308B\u3053\u3068\u3067\u306E\u6094\u3057\u3055\u3084\u6BBA\u610F\u3092\u62B1\u304F\u3068\u3044\u3063\u305F\u6B63\u5E38\u306A\u53CD\u5FDC\u306F\u3059\u3067\u306B\u306A\u304B\u3063\u305F\u3002"
    CG: 0
    SE: 
    Voice: 
  - ID: 7
    CharaName: 
    ScenarioText: "\u3073\u3085\u308B\u3063\uFF01\u3000\u3073\u3085\u3073\u3085\u3063\uFF01\u3000\u3073\u3085\u308B\u308B\u3063\uFF01\n\u3073\u3085\u30FC\u3063\uFF01\u3000\u3073\u3085\u30FC\u3063\uFF01\u3000\u3073\u3085\u30FC\u3063\uFF01"
    CG: 1
    SE: 
    Voice: 
  - ID: 8
    CharaName: "\u30D5\u30A3\u30FC\u30CA"
    ScenarioText: "\u300C\u3093\u3093\u3093\u3063\u266A\u3000\u306F\u3041\u3001\u306F\u3041\u3001\u306F\u3041\u2026\u2026\u3093\u3045\u3063\u2026\u2026\u3093\u3063\u2026\u2026\u3075\u3045\u3063\u2026\u2026\u300D"
    CG: 0
    SE: 
    Voice: 
  - ID: 9
    CharaName: 
    ScenarioText: "\u5C04\u7CBE\u3055\u308C\u305F\u7CBE\u6DB2\u304C\u30D5\u30A3\u30FC\u30CA\u306E\u4F53\u3092\u3055\u3089\u306B\u767D\u304F\u6C5A\u3057\u3066\u3044\u304F\u3002\n\u30D9\u30BF\u30D9\u30BF\u3068\u7C98\u7740\u8CEA\u306A\u7CBE\u6DB2\u306F\u3001\u4F53\u306B\u5F35\u308A\u4ED8\u304D\u306A\u304C\u3089\u9396\u9AA8\u3001\u3078\u305D\u3068\u3044\u3063\u305F\u304F\u307C\u307F\u306E\u3042\u308B\u90E8\u5206\u306B\u6E9C\u307E\u308A\n\u306A\u304C\u3089\u30D5\u30EB\u30D5\u30EB\u3068\u63FA\u308C\u3066\u3044\u304F\u3002"
    CG: 0
    SE: 
    Voice: 
  - ID: 10
    CharaName: 
    ScenarioText: "\u6B62\u307E\u308A\u304D\u3089\u306A\u304F\u306A\u3063\u305F\u7CBE\u6DB2\u306F\u808C\u3092\u4F1D\u3044\u306A\u304C\u3089\u30C9\u30ED\u30C9\u30ED\u3068\u5782\u308C\u3066\u3044\u304F\u3002\n\u4E7E\u304F\u30D2\u30DE\u306E\u306A\u3044\u611F\u899A\u3067\u72AF\u3055\u308C\u7D9A\u3051\u3001\u3082\u306F\u3084\u30D5\u30A3\u30FC\u30CA\u306E\u5168\u8EAB\u306F\u7CBE\u6DB2\u6F2C\u3051\u306B\u3055\u308C\u3066\u3044\u308B\u3088\u3046\u306A\u72B6\u614B\u306B\n\u306A\u3063\u3066\u3044\u305F\u3002"
    CG: 0
    SE: 
    Voice: 
  - ID: 11
    CharaName: "\u30D5\u30A3\u30FC\u30CA"
    ScenarioText: "\u300C\u3093\u3063\u2026\u2026\u304F\u3063\u2026\u2026\u3046\u3045\u3063\u2026\u2026\u300D"
    CG: 0
    SE: 
    Voice: 
  - ID: 12
    CharaName: 
    ScenarioText: "\u30D5\u30A3\u30FC\u30CA\u306E\u9854\u306B\u9670\u308A\u304C\u898B\u3048\u308B\u3002\n\u3060\u304C\u3001\u305D\u308C\u306F\u72AF\u3055\u308C\u3066\u3044\u308B\u3053\u3068\u306B\u7D76\u671B\u3057\u3066\u3044\u308B\u308F\u3051\u3067\u306F\u306A\u304B\u3063\u305F\u3002\n\u3059\u3067\u306B\u4F53\u306B\u306F\u529B\u304C\u5165\u3089\u306A\u3044\u306E\u3060\u304C\u3001\u305D\u306E\u4EE3\u308F\u308A\u306B\u5168\u8EAB\u304C\u3080\u305A\u3080\u305A\u3057\u3066\u6B62\u307E\u3089\u306A\u3044\u3002"
    CG: 2
    SE: 
    Voice: 
  - ID: 13
    CharaName: 
    ScenarioText: "\u5168\u7136\u8DB3\u308A\u306A\u3044\u306E\u3060\u3002\n\u81EA\u5206\u306E\u4F53\u3092\u30AA\u30E2\u30C1\u30E3\u306E\u3088\u3046\u306B\u4F7F\u3063\u3066\u5C04\u7CBE\u3092\u7E70\u308A\u8FD4\u3059\u30B4\u30D6\u30EA\u30F3\u305F\u3061\u306E\u6027\u6B32\u51E6\u7406\u3067\u306F\u3001\u30D5\u30A3\u30FC\u30CA\u81EA\u8EAB\n\u304C\u611F\u3058\u308B\u5FEB\u697D\u306F\u7269\u8DB3\u308A\u306A\u304F\u306A\u3063\u3066\u3044\u305F\u3002"
    CG: 0
    SE: 
    Voice: 
  - ID: 14
    CharaName: 
    ScenarioText: "\u7D76\u9802\u307E\u3067\u5411\u304B\u3063\u3066\u3044\u304F\u306E\u306B\u3001\u3042\u3068\u3061\u3087\u3063\u3068\u3067\u30A4\u3051\u308B\u3068\u3044\u3046\u3068\u3053\u308D\u307E\u3067\u306F\u5230\u9054\u3059\u308B\u306E\u306B\u3001\n\u305D\u3053\u3067\u30B4\u30D6\u30EA\u30F3\u305F\u3061\u306F\u52DD\u624B\u306B\u679C\u3066\u3066\u3057\u307E\u3063\u3066\u3044\u308B\u3001\u3068\u3044\u3046\u72B6\u6CC1\u306B\u9665\u3063\u3066\u3044\u308B\u3002\n\u305D\u3057\u3066\u3001\u30D5\u30A3\u30FC\u30CA\u306F\u305D\u306E\u201C\u304A\u3042\u305A\u3051\u201D\u306B\u8010\u3048\u3089\u308C\u306A\u304F\u306A\u3063\u3066\u3044\u305F\u3002"
    CG: 0
    SE: 
    Voice: 
  - ID: 15
    CharaName: "\u30D5\u30A3\u30FC\u30CA"
    ScenarioText: "\u300C\u3046\u3045\u3045\u3063\u2026\u2026\u306F\u3041\u3001\u306F\u3041\u3001\u306F\u3041\u2026\u2026\u300D"
    CG: 0
    SE: 
    Voice: 
  - ID: 16
    CharaName: 
    ScenarioText: "\u5168\u8EAB\u306E\u75BC\u304D\u304C\u6B62\u307E\u3089\u306A\u3044\u3002\n\u767D\u304F\u30D9\u30BF\u30D9\u30BF\u306B\u72AF\u3055\u308C\u305F\u304A\u3063\u3071\u3044\u304C\u30B8\u30F3\u30B8\u30F3\u3068\u75FA\u308C\u3066\u3044\u308B\u3002\n\u81A3\u7A74\u306F\u30D2\u30AF\u30D2\u30AF\u3068\u52DD\u624B\u306B\u52D5\u304D\u7D9A\u3051\u3001\u7CBE\u6DB2\u3092\u5782\u308C\u6D41\u3057\u3066\u3044\u308B\u306E\u306B\u2026\u2026\u3001\u5168\u7136\u8DB3\u308A\u306A\u3044\u3002"
    CG: 0
    SE: 
    Voice: 
  - ID: 17
    CharaName: 
    ScenarioText: "\u5FEB\u697D\u3092\u6C42\u3081\u308B\u81EA\u8EAB\u306E\u4F53\u306B\u6297\u3046\u529B\u306F\u3001\u30D5\u30A3\u30FC\u30CA\u306B\u306F\u3082\u3046\u6B8B\u3055\u308C\u3066\u3044\u306A\u304B\u3063\u305F\u3002\n\u305D\u3046\u3057\u3066\u3001\u4F55\u3082\u304B\u3082\u3001\u3069\u3046\u3067\u3082\u3088\u304F\u306A\u3063\u3066\u3057\u307E\u3063\u305F\u3002\n\u305F\u3060\u3001\u3082\u3063\u3068\u6C17\u6301\u3061\u3088\u304F\u306A\u308A\u305F\u3044\u3001\u305D\u306E\u3053\u3068\u3057\u304B\u30D5\u30A3\u30FC\u30CA\u306F\u8003\u3048\u3089\u308C\u306A\u304F\u306A\u3063\u3066\u3044\u305F\u3002"
    CG: 0
    SE: 
    Voice: 
  - ID: 18
    CharaName: "\u30D5\u30A3\u30FC\u30CA"
    ScenarioText: "\u300C\u306F\u3041\u3001\u306F\u3041\u2026\u2026\u3082\u3063\u3068\u3049\u3001\u3044\u3063\u3071\u3044\u2026\u2026\u72AF\u3057\u3066\u3001\u304F\u3060\u3055\u3041\u3044\u2026\u2026\u266A\n\u3000\u304A\u306D\u304C\u3041\u3044\u266A\u3000\u304A\u3061\u3093\u307D\u3001\u3044\u3063\u3071\u3044\u3001\u30BA\u30DC\u30BA\u30DC\u3057\u3066\u3047\u3063\u266A\u3000\u6C17\u6301\u3061\u3088\u304F\u3001\u306A\u308A\u305F\u3044\u306E\u3049\u266A\u300D"
    CG: 3
    SE: 
    Voice: 
  - ID: 19
    CharaName: 
    ScenarioText: "\u4F53\u3092\u3086\u3089\u3086\u3089\u3068\u63FA\u3089\u3057\u3001\u30B4\u30D6\u30EA\u30F3\u305F\u3061\u3092\u8A98\u3046\u3088\u3046\u306B\u7518\u3048\u308B\u30D5\u30A3\u30FC\u30CA\u3002\n\u5FEB\u697D\u306E\u865C\u306B\u306A\u3063\u3066\u3057\u307E\u3063\u3066\u3044\u308B\u30D5\u30A3\u30FC\u30CA\u306F\u3001\u30B4\u30D6\u30EA\u30F3\u305F\u3061\u306B\u72AF\u3057\u3066\u307B\u3057\u3044\u3068\u61C7\u9858\u3059\u308B\u3002\n\u4EE5\u524D\u306E\u5168\u529B\u3067\u62B5\u6297\u3057\u3066\u3044\u305F\u5F7C\u5973\u306E\u59FF\u306F\u898B\u308B\u5F71\u3082\u306A\u304B\u3063\u305F\u3002"
    CG: 0
    SE: 
    Voice: 
  - ID: 20
    CharaName: "\u30B4\u30D6\u30EA\u30F3\u305F\u3061"
    ScenarioText: "\u300C\u30B1\u30D2\u30C3\uFF01\u3000\u30B1\u30D2\u30D2\u30D2\u30D2\u30D2\u30D2\u30D2\u30D2\u30D2\u30D2\u30D2\u30D2\u30D2\u30D2\u30D2\u30D2\u30C3\uFF01\u3000\u30D8\u30D2\u30E3\u30CF\u30C3\uFF01\u300D"
    CG: 0
    SE: 
    Voice: 
  - ID: 21
    CharaName: 
    ScenarioText: "\u6027\u6B32\u51E6\u7406\u306B\u3057\u304B\u601D\u3063\u3066\u3044\u306A\u304B\u3063\u305F\u30AA\u30E2\u30C1\u30E3\u304C\u3001\u5B8C\u5168\u306B\u5815\u3061\u3066\u3057\u307E\u3063\u305F\u3002\n\u305D\u306E\u59FF\u306F\u30B4\u30D6\u30EA\u30F3\u305F\u3061\u3092\u6B53\u559C\u3055\u305B\u3001\u8208\u596E\u3055\u305B\u308B\u306B\u306F\u5341\u5206\u904E\u304E\u308B\u3082\u306E\u3060\u3063\u305F\u3002\n\u518D\u3073\u30D5\u30A3\u30FC\u30CA\u306E\u4F53\u306B\u30EF\u30E9\u30EF\u30E9\u3068\u7FA4\u304C\u308B\u30B4\u30D6\u30EA\u30F3\u305F\u3061\u3092\u3001\u5F7C\u5973\u3082\u559C\u3093\u3067\u53D7\u3051\u5165\u308C\u3066\u3044\u304F\u3002"
    CG: 0
    SE: 
    Voice: 
  - ID: 22
    CharaName: "\u30D5\u30A3\u30FC\u30CA"
    ScenarioText: "\u300C\u3093\u3041\u3063\u266A\u3000\u3082\u3063\u3068\u3049\u266A\u3000\u30BA\u30DC\u30BA\u30DC\u3049\u266A\u3000\u3057\u3066\u3047\u3063\u266A\u3000\u3042\u3093\u3063\u266A\n\u3000\u3044\u3044\u3063\u3001\u3044\u3044\u3088\u3049\u3063\u266A\u3000\u304A\u3063\u3071\u3044\u3001\u3044\u3063\u3071\u3044\u53EF\u611B\u304C\u3063\u3066\u304F\u3060\u3055\u3044\u3043\u3043\u3063\u266A\u300D"
    CG: 0
    SE: 
    Voice: 
  - ID: 23
    CharaName: 
    ScenarioText: "\u30D5\u30A3\u30FC\u30CA\u306E\u4F53\u3092\u8EAB\u52DD\u624B\u306B\u4F7F\u3044\u3001\u5FEB\u697D\u3092\u8CAA\u308A\u5C3D\u304F\u3059\u305F\u3081\u306B\u30B4\u30D6\u30EA\u30F3\u305F\u3061\u304C\u52D5\u304D\u7D9A\u3051\u308B\u3002\n\u305D\u3093\u306A\u5C0F\u9B3C\u305F\u3061\u304B\u3089\u3082\u3063\u3068\u7CBE\u6DB2\u3092\u643E\u53D6\u3059\u308B\u305F\u3081\u3001\u5F7C\u5973\u306E\u81A3\u8089\u306F\u53CE\u7E2E\u3092\u7D9A\u3051\u3066\u3044\u304F\u3002"
    CG: 0
    SE: 
    Voice: 
  - ID: 24
    CharaName: 
    ScenarioText: "\u5168\u8EAB\u304C\u5FEB\u697D\u6F2C\u3051\u3067\u30C8\u30ED\u30C8\u30ED\u306B\u306A\u3063\u3066\u3044\u308B\u30D5\u30A3\u30FC\u30CA\u306E\u4F53\u306F\u3001\u30B4\u30D6\u30EA\u30F3\u305F\u3061\u306B\u3068\u3063\u3066\u3082\u3054\u99B3\u8D70\u306E\u3088\u3046\n\u306A\u3082\u306E\u3067\u3042\u3063\u305F\u3002\n\u5815\u3061\u305F\u96CC\u7A74\u3092\u8E42\u8E99\u3057\u5C3D\u3057\u3066\u3082\u8DB3\u308A\u306A\u3044\u3002\u5E95\u306E\u898B\u3048\u306A\u3044\u6027\u6B32\u3067\u7F8E\u3057\u3044\u80A2\u4F53\u3092\u582A\u80FD\u3057\u3066\u3044\u304F\u3002"
    CG: 0
    SE: 
    Voice: 
  - ID: 25
    CharaName: "\u30D5\u30A3\u30FC\u30CA"
    ScenarioText: "\u300C\u3042\u3041\u3063\u266A\u3000\u3042\u3041\u3063\u266A\u3000\u304A\u3063\u266A\u3000\u304A\u3049\u3063\u266A\u3000\u304A\u3063\u266A\u3000\u304A\u3093\u3063\u266A\u3000\u304A\u3045\u3093\u3063\u266A\n\u3000\u3053\u308C\u3063\u3001\u6C17\u6301\u3061\u3063\u2026\u2026\u3093\u3093\u3093\u3063\uFF01\u3000\u6C17\u6301\u3061\u3044\u3044\u3043\u3063\u266A\u3000\u3093\u3049\u3049\u3063\u266A\u300D"
    CG: 0
    SE: 
    Voice: 
  - ID: 26
    CharaName: 
    ScenarioText: "\u5FEB\u697D\u307E\u307F\u308C\u306E\u30C8\u30ED\u30C8\u30ED\u306E\u5B0C\u58F0\u3092\u4E0A\u3052\u306A\u304C\u3089\u3001\u30D5\u30A3\u30FC\u30CA\u306E\u4F53\u306F\u5F85\u3061\u671B\u3093\u3066\u3044\u305F\u7D76\u9802\u3078\u306E\u9AD8\u307F\u3078\u3068\u6607\n\u308A\u3064\u3081\u3066\u3044\u304F\u3002\n\u6EBA\u308C\u308B\u307B\u3069\u306E\u5FEB\u697D\u306B\u6E80\u305F\u3055\u308C\u3001\u6DEB\u9761\u306B\u8EAB\u3092\u304F\u306D\u3089\u305B\u3066\u30B4\u30D6\u30EA\u30F3\u306E\u60C5\u6B32\u3092\u64AB\u3067\u4E0A\u3052\u308B\u3002"
    CG: 0
    SE: 
    Voice: 
  - ID: 27
    CharaName: "\u30D5\u30A3\u30FC\u30CA"
    ScenarioText: "\u300C\u3093\u3049\u3049\u3063\u266A\u3000\u3093\u3093\u3063\u266A\u3000\u3042\u3093\u3063\u266A\u3000\u3042\u3063\u266A\u3000\u30A4\u304F\u3063\u3001\u30A4\u3063\u2026\u2026\u30A4\u304F\u3045\u3063\u266A\n\u3000\u3082\u3046\u3063\u3001\u30A4\u3063\u3061\u3083\u2026\u2026\u3046\u3045\u3093\u3093\u3093\u3093\u3093\u3093\u3063\u3063\u266A\u266A\u266A\n\u3000\u3093\u3041\u3041\u3041\u3041\u3041\u3041\u3041\u3041\u3041\u3041\u3041\u3041\u3041\u3041\u3041\u3041\u3041\u3041\u3041\u3041\u3041\u3041\u3041\u3041\u3041\u3041\u3041\u3041\u3041\u3063\u3063\u3063\u266A\u266A\u266A\u300D"
    CG: 0
    SE: 
    Voice: 
  - ID: 28
    CharaName: 
    ScenarioText: "\u3073\u3085\u308B\u308B\u308B\u308B\u3063\uFF01\u3000\u3073\u3085\u3073\u3085\u308B\u3063\uFF01\u3000\u3073\u3085\u3061\u3085\u3063\uFF01\n\u3073\u3085\u30FC\u3063\uFF01\u3000\u3073\u3085\u3070\u3063\uFF01\u3000\u3073\u3085\u3073\u3085\u3063\u3073\u3085\u30FC\u3063\uFF01\u3000\u3073\u3085\u30FC\u3063\uFF01"
    CG: 4
    SE: 
    Voice: 
  - ID: 29
    CharaName: 
    ScenarioText: "\u30B4\u30D6\u30EA\u30F3\u305F\u3061\u306E\u5C04\u7CBE\u306B\u5408\u308F\u305B\u308B\u3088\u3046\u306B\u3001\u30D5\u30A3\u30FC\u30CA\u306F\u7D76\u9802\u3092\u8FCE\u3048\u308B\u3002\n\u3088\u3060\u308C\u3092\u5782\u3089\u3057\u306A\u304C\u3089\u5420\u3048\u308B\u3088\u3046\u306A\u7532\u9AD8\u3044\u5B0C\u58F0\u3092\u4E0A\u3052\u3001\u5168\u8EAB\u3092\u6D3E\u624B\u306B\u9707\u308F\u305B\u3066\u3044\u304F\u3002\n\u4E2D\u51FA\u3057\u3092\u3057\u3066\u3044\u308B\u30B4\u30D6\u30EA\u30F3\u306E\u8089\u68D2\u3092\u81A3\u8089\u3067\u643E\u308A\u4E0A\u3052\u3001\u653E\u51FA\u3055\u308C\u305F\u7CBE\u6DB2\u3092\u98F2\u307F\u8FBC\u3093\u3067\u3044\u3063\u305F\u3002"
    CG: 0
    SE: 
    Voice: 
  - ID: 30
    CharaName: 
    ScenarioText: "\u305A\u3063\u3068\u7126\u3089\u3055\u308C\u3001\u6211\u6162\u3057\u3066\u3044\u305F\u53CD\u52D5\u3067\u3001\u30D5\u30A3\u30FC\u30CA\u306E\u4F53\u306F\u5FEB\u611F\u306B\u98E2\u3048\u3066\u3044\u305F\u3002\n\u305D\u306E\u305F\u3081\u3001\u7D76\u9802\u306E\u5FEB\u611F\u306F\u4ECA\u307E\u3067\u3068\u6BD4\u3079\u7269\u306B\u306A\u3089\u306A\u3044\u307B\u3069\u3001\u9577\u304F\u5F37\u5927\u3067\u6FC0\u3057\u3044\u3082\u306E\u306B\u5909\u8C8C\u3057\u3066\u3057\u307E\n\u3063\u3066\u3044\u305F\u306E\u3060\u3002"
    CG: 0
    SE: 
    Voice: 
  - ID: 31
    CharaName: "\u30D5\u30A3\u30FC\u30CA"
    ScenarioText: "\u300C\u3042\u30FC\u3063\u266A\u3000\u3042\u30FC\u3063\u266A\u3000\u3042\u30FC\u3063\u2026\u2026\u266A\u3000\u3093\u3045\u3045\u3063\u2026\u2026\u306F\u3041\u3041\u2026\u2026\u306F\u3041\u3041\u2026\u2026\u306F\u3041\u3093\u266A\n\u3000\u3075\u3085\u3054\u3049\u3044\u2026\u2026\u266A\u3000\u306B\u3083\u306B\u3001\u3053\u308A\u3047\u2026\u2026\u266A\u3000\u306F\u3041\u3001\u306F\u3041\u3001\u3093\u3093\u3093\u3063\u266A\u266A\u300D"
    CG: 5
    SE: 
    Voice: 
  - ID: 32
    CharaName: 
    ScenarioText: "\u5FEB\u697D\u3067\u6D3E\u624B\u306B\u982D\u3092\u6483\u3061\u629C\u304B\u308C\u305F\u3088\u3046\u306A\u611F\u899A\u3002\n\u4F53\u5168\u4F53\u304C\u672A\u3060\u306B\u30B4\u30D6\u30EA\u30F3\u305F\u3061\u306B\u89E6\u3089\u308C\u3066\u3044\u308B\u304B\u306E\u3088\u3046\u306A\u932F\u899A\u3059\u3089\u899A\u3048\u3066\u3044\u308B\u3002\n\u30D2\u30AF\u30D2\u30AF\u3068\u5168\u8EAB\u3092\u9707\u308F\u305B\u3001\u53E3\u5143\u304B\u3089\u306F\u3060\u3089\u3057\u306A\u304F\u820C\u304C\u5782\u308C\u3066\u3044\u308B\u3002"
    CG: 0
    SE: 
    Voice: 
  - ID: 33
    CharaName: "\u30D5\u30A3\u30FC\u30CA"
    ScenarioText: "\u300C\u3048\u3078\u3078\u3078\u3078\u3078\u3063\u266A\u3000\u3048\u3078\u3078\u3078\u3063\u266A\u3000\u3093\u3041\u2026\u2026\u266A\n\u3000\u3041\u3041\u2026\u2026\u266A\u3000\u3041\u3041\u3041\u2026\u2026\u266A\u3000\u3041\u3041\u3041\u2026\u2026\u266A\u3000\u3093\u3063\u266A\u3000\u3041\u3041\u2026\u2026\u300D"
    CG: 0
    SE: 
    Voice: 
  - ID: 34
    CharaName: 
    ScenarioText: "\u30D5\u30A3\u30FC\u30CA\u306E\u610F\u8B58\u306F\u7D76\u9802\u306E\u77AC\u9593\u306B\u3069\u3053\u304B\u306B\u5F3E\u304D\u98DB\u3070\u3055\u308C\u3066\u3057\u307E\u3063\u3066\u3044\u305F\u3002\n\u7B11\u9854\u3092\u6D6E\u304B\u3079\u305F\u307E\u307E\u3001\u5FEB\u697D\u306E\u6ABB\u306E\u4E2D\u3067\u3044\u307E\u3060\u30B4\u30D6\u30EA\u30F3\u305F\u3061\u306B\u72AF\u3055\u308C\u3066\u3044\u308B\u306E\u304B\u3082\u3057\u308C\u306A\u3044\u3002\n\u3060\u3089\u3093\u3068\u529B\u306E\u629C\u3051\u305F\u7CBE\u6DB2\u6F2C\u3051\u306B\u3055\u308C\u305F\u4F53\u3092\u3001\u3044\u3064\u307E\u3067\u3082\u30D2\u30AF\u30D2\u30AF\u3068\u9707\u308F\u305B\u7D9A\u3051\u308B\u3002"
    CG: 0
    SE: 
    Voice: 
  - ID: 35
    CharaName: 
    ScenarioText: "\u5E78\u305B\u305D\u3046\u306A\u9854\u3092\u6D6E\u304B\u3079\u305F\u30D5\u30A3\u30FC\u30CA\u3092\u898B\u3064\u3081\u308B\u30B4\u30D6\u30EA\u30F3\u305F\u3061\u306F\u3001\u53E3\u5143\u3092\u6B6A\u3081\u306A\u304C\u3089\u7B11\u3063\u3066\u3044\u308B\u3002\n\u7D42\u308F\u308B\u3053\u3068\u306E\u306A\u3044\u5FEB\u697D\u3092\u6E80\u305F\u3059\u305F\u3081\u3001\u76EE\u306E\u524D\u306B\u3042\u308B\u5815\u3061\u305F\u30E1\u30B9\u7A74\u306F\u6700\u9069\u3067\u3042\u308B\u3002\n\u305D\u3046\u3057\u3066\u98FD\u304D\u308B\u307E\u3067\u3001\u30D5\u30A3\u30FC\u30CA\u306F\u30B4\u30D6\u30EA\u30F3\u305F\u3061\u306E\u6027\u6B32\u51E6\u7406\u3068\u3057\u3066\u4F7F\u308F\u308C\u308B\u306E\u3060\u308D\u3046\u3002"
    CG: 0
    SE: 
    Voice: 
  - ID: 0
    CharaName: 
    ScenarioText: 
    CG: 0
    SE: 
    Voice: 
  - ID: 0
    CharaName: 
    ScenarioText: 
    CG: 0
    SE: 
    Voice: 
  - ID: 0
    CharaName: 
    ScenarioText: 
    CG: 0
    SE: 
    Voice: 
  - ID: 0
    CharaName: 
    ScenarioText: 
    CG: 0
    SE: 
    Voice: 
  - ID: 0
    CharaName: 
    ScenarioText: 
    CG: 0
    SE: 
    Voice: 
  - ID: 0
    CharaName: 
    ScenarioText: 
    CG: 0
    SE: 
    Voice: 
  - ID: 0
    CharaName: 
    ScenarioText: 
    CG: 0
    SE: 
    Voice: 
  - ID: 0
    CharaName: 
    ScenarioText: 
    CG: 0
    SE: 
    Voice: 
  - ID: 0
    CharaName: 
    ScenarioText: 
    CG: 0
    SE: 
    Voice: 
  - ID: 0
    CharaName: 
    ScenarioText: 
    CG: 0
    SE: 
    Voice: 
  - ID: 0
    CharaName: 
    ScenarioText: 
    CG: 0
    SE: 
    Voice: 
  - ID: 0
    CharaName: 
    ScenarioText: 
    CG: 0
    SE: 
    Voice: 
