{
"skeleton": { "hash": "w0wKfQ3rq4cRCRZcySB0+6IaSE4", "spine": "3.6.53", "width": 1038, "height": 1028.42, "images": "./images/" },
"bones": [
	{ "name": "root" },
	{ "name": "IK_left_reg", "parent": "root", "x": -32.34, "y": 124.86, "color": "ff3f00ff" },
	{ "name": "IK_right_leg", "parent": "root", "x": 119.27, "y": 113, "color": "ff3f00ff" },
	{ "name": "bone", "parent": "root", "x": 9.35, "y": 601.4 },
	{ "name": "Waist", "parent": "bone", "length": 189.27, "rotation": -118.87, "x": 74.37, "y": -70.12, "color": "ec3c3cff" },
	{ "name": "Upper body", "parent": "Waist", "length": 212.22, "rotation": -109.5, "x": -27.8, "y": -64.97 },
	{ "name": "loincloth", "parent": "Waist", "length": 65.02, "rotation": 32.44, "x": 174.26, "y": -42.84, "color": "ec3c3cff" },
	{ "name": "Waist3", "parent": "loincloth", "length": 65.93, "rotation": 11.88, "x": 83.91, "y": -1.18, "color": "ec3c3cff" },
	{ "name": "Waist4", "parent": "Waist3", "length": 57.39, "rotation": -0.44, "x": 88.8, "y": -3.52, "color": "ec3c3cff" },
	{
		"name": "left_arm",
		"parent": "Upper body",
		"length": 222.35,
		"rotation": 176.77,
		"x": 140.51,
		"y": -103.55,
		"transform": "noScale",
		"color": "6dec3cff"
	},
	{ "name": "bone6", "parent": "left_arm", "length": 201.95, "rotation": -29.93, "x": 274.46, "y": 7.43 },
	{ "name": "bone7", "parent": "bone6", "length": 73.27, "rotation": -25.33, "x": 250.48, "y": -6.25 },
	{
		"name": "right_arm",
		"parent": "Upper body",
		"length": 176.49,
		"rotation": 140.44,
		"x": 213.59,
		"y": 61.87,
		"transform": "noScale",
		"color": "1dbad6ff"
	},
	{ "name": "bone9", "parent": "right_arm", "length": 150.93, "rotation": -42.77, "x": 227.07, "y": -12.46 },
	{ "name": "bone10", "parent": "bone9", "length": 61.29, "rotation": 17.57, "x": 164.97, "y": -2.95 },
	{ "name": "left_leg", "parent": "Waist", "length": 180.22, "rotation": -9.25, "x": 22.36, "y": 82.69, "color": "c725e4ff" },
	{ "name": "bone12", "parent": "left_leg", "length": 169.25, "rotation": 57.38, "x": 209.36, "y": 62.96 },
	{ "name": "bone13", "parent": "bone12", "length": 59.65, "rotation": -12.36, "x": 204.2, "y": -6.88 },
	{ "name": "right_leg", "parent": "Waist", "length": 257.02, "rotation": -29.14, "x": 83.52, "y": -36.84, "color": "e662aeff" },
	{ "name": "bone15", "parent": "right_leg", "length": 270.35, "rotation": 107.87, "x": 293.14, "y": 17.41 },
	{ "name": "bone16", "parent": "bone15", "length": 96.17, "rotation": -90, "x": 289.87, "y": -10.98 },
	{ "name": "head", "parent": "Upper body", "length": 144.64, "rotation": 50.89, "x": 245.36, "y": 8.04, "transform": "noScale" }
],
"slots": [
	{ "name": "right_arm", "bone": "right_arm", "attachment": "right_arm" },
	{ "name": "right_leg", "bone": "right_leg", "attachment": "right_leg" },
	{ "name": "body", "bone": "Waist", "attachment": "body" },
	{ "name": "loincloth", "bone": "loincloth", "attachment": "loincloth" },
	{ "name": "left_leg", "bone": "left_leg", "attachment": "left_leg" },
	{ "name": "face", "bone": "head", "attachment": "face" },
	{ "name": "left_arm", "bone": "left_arm", "attachment": "left_arm" }
],
"ik": [
	{
		"name": "IK_left_leg",
		"order": 0,
		"bones": [ "right_leg", "bone15" ],
		"target": "IK_left_reg"
	},
	{
		"name": "IK_right_leg",
		"order": 1,
		"bones": [ "left_leg", "bone12" ],
		"target": "IK_right_leg"
	}
],
"skins": {
	"default": {
		"body": {
			"body": {
				"type": "mesh",
				"uvs": [ 0.44641, 0, 0.52734, 0, 0.59178, 0.05663, 0.65622, 0.05878, 0.70418, 0.10724, 0.75064, 0.12447, 0.77462, 0.1697, 0.84056, 0.2397, 0.89002, 0.31186, 0.92599, 0.37755, 0.95297, 0.44216, 0.97545, 0.50463, 0.99493, 0.56924, 1, 0.62309, 1, 0.69201, 0.99043, 0.75721, 0.94397, 0.84337, 0.88103, 0.89614, 0.81359, 0.93706, 0.71317, 0.97583, 0.61876, 0.99198, 0.55281, 1, 0.48088, 1, 0.40594, 1, 0.3445, 0.98014, 0.29954, 0.93383, 0.27855, 0.86275, 0.27406, 0.78414, 0.28605, 0.71306, 0.31602, 0.64845, 0.35649, 0.59352, 0.42543, 0.56983, 0.42243, 0.54721, 0.40444, 0.52783, 0.37897, 0.50845, 0.33401, 0.49875, 0.23795, 0.48845, 0.16901, 0.46692, 0.11656, 0.4303, 0.07159, 0.3883, 0.02064, 0.33769, 0, 0.27738, 0, 0.20845, 0.04162, 0.13885, 0.11056, 0.07962, 0.19149, 0.043, 0.31288, 0.015, 0.47267, 0.54018, 0.58236, 0.53684, 0.75509, 0.51839, 0.44698, 0.50161, 0.57069, 0.46807, 0.68507, 0.43284, 0.47732, 0.58212, 0.65239, 0.58045, 0.80645, 0.57541, 0.4073, 0.45633, 0.61738, 0.42781 ],
				"triangles": [ 41, 42, 43, 39, 40, 41, 39, 43, 44, 39, 41, 43, 4, 57, 2, 4, 2, 3, 6, 57, 4, 6, 4, 5, 52, 57, 6, 7, 52, 6, 45, 39, 44, 38, 39, 45, 8, 52, 7, 52, 8, 9, 56, 46, 0, 45, 46, 56, 36, 37, 38, 0, 1, 2, 56, 0, 2, 56, 2, 57, 38, 45, 36, 51, 56, 57, 51, 57, 52, 56, 36, 45, 35, 36, 56, 50, 56, 51, 34, 35, 56, 33, 34, 56, 49, 52, 9, 49, 9, 10, 50, 33, 56, 48, 51, 52, 48, 52, 49, 47, 50, 51, 48, 47, 51, 32, 33, 50, 32, 50, 47, 53, 47, 48, 54, 48, 49, 55, 49, 10, 11, 55, 10, 54, 49, 55, 54, 55, 18, 55, 11, 12, 30, 31, 53, 20, 53, 54, 13, 55, 12, 13, 15, 55, 14, 15, 13, 16, 55, 15, 29, 26, 27, 17, 55, 16, 28, 29, 27, 24, 25, 26, 18, 55, 17, 19, 54, 18, 29, 53, 26, 53, 24, 26, 53, 29, 30, 24, 53, 23, 54, 19, 20, 53, 22, 23, 53, 21, 22, 20, 21, 53, 31, 47, 53, 53, 48, 54, 31, 32, 47 ],
				"vertices": [ 1, 5, 236.78, -140.37, 1, 1, 5, 216.47, -163.79, 1, 1, 5, 177.5, -162.67, 1, 1, 5, 160.46, -180.56, 1, 1, 5, 128.91, -177.52, 1, 1, 5, 110.32, -184.95, 1, 1, 5, 86.09, -176.1, 1, 2, 4, -202.55, -46.96, 5.3E-4, 5, 41.35, -170.74, 0.99947, 2, 4, -178.45, -11.51, 0.01814, 5, -0.11, -159.86, 0.98186, 2, 4, -154.79, 17.75, 0.0799, 5, -35.59, -147.33, 0.9201, 2, 4, -129.94, 43.74, 0.5019, 5, -68.38, -132.57, 0.4981, 2, 4, -105.23, 67.66, 0.70804, 5, -99.18, -117.27, 0.29196, 1, 4, -78.97, 91.15, 1, 1, 4, -54.96, 107, 1, 1, 4, -23.01, 125.13, 1, 2, 4, 9.02, 139.1, 0.99063, 5, -204.66, -33.41, 0.00937, 1, 4, 57.74, 146.29, 1, 1, 4, 94.1, 139.2, 1, 1, 4, 125.82, 127.5, 1, 1, 4, 162.77, 104.25, 1, 2, 4, 188.11, 77.05, 1, 21, -169.78, 443.6, 0, 2, 4, 204.29, 57.2, 1, 21, -144.4, 447.07, 0, 2, 4, 217.89, 33.23, 1, 21, -116.86, 446.19, 0, 1, 4, 232.05, 8.27, 1, 1, 4, 234.46, -17.42, 1, 2, 4, 221.49, -44.58, 0.99997, 5, -102.44, 228.18, 3.0E-5, 2, 4, 192.51, -70.27, 0.99486, 5, -68.55, 209.44, 0.00514, 1, 4, 156.92, -92.44, 1, 1, 4, 121.71, -107.15, 1, 1, 4, 86.09, -114.16, 1, 1, 4, 52.98, -115.13, 1, 2, 4, 28.96, -98.4, 0.90048, 5, 12.56, 64.66, 0.09952, 2, 4, 19.05, -105.35, 0.53193, 5, 22.42, 57.63, 0.46807, 2, 4, 13.46, -116.44, 0.46554, 5, 34.74, 56.07, 0.53446, 2, 4, 9.29, -130.02, 0.43645, 5, 48.94, 56.67, 0.56355, 2, 4, 13.3, -147.55, 0.00956, 5, 64.13, 66.3, 0.99044, 1, 5, 92.37, 90.5, 1, 1, 5, 118.34, 102.93, 1, 1, 5, 146.25, 105.32, 1, 1, 5, 174.44, 103.67, 1, 1, 5, 207.61, 100.74, 1, 1, 5, 237.08, 85.66, 1, 1, 5, 264.83, 61.59, 1, 1, 5, 282.42, 25.24, 1, 1, 5, 288.98, -15.39, 1, 1, 5, 283.42, -51.59, 1, 1, 5, 264.24, -96.5, 1, 2, 4, 6.29, -90.46, 0.41639, 5, 12.65, 40.64, 0.58361, 2, 4, -16, -54.8, 0.3879, 5, -13.52, 7.73, 0.6121, 2, 4, -57.2, -2.12, 0.50153, 5, -49.43, -48.7, 0.49847, 2, 4, -6.73, -109.17, 0.2125, 5, 34.63, 34.61, 0.7875, 2, 4, -45.67, -76.78, 0.19728, 5, 17.1, -12.91, 0.80272, 2, 4, -83.62, -47.95, 0.14808, 5, 2.59, -58.3, 0.85192, 2, 4, 24.85, -77.88, 0.6112, 5, -5.41, 53.94, 0.3888, 2, 4, -9.02, -20.01, 0.85315, 5, -48.65, 2.69, 0.14685, 2, 4, -40.47, 29.99, 0.8361, 5, -85.28, -43.65, 0.1639, 2, 4, -20.23, -134.3, 0.18589, 5, 62.82, 30.28, 0.81411, 2, 4, -73.16, -71.82, 0.01719, 5, 21.6, -40.47, 0.98281 ],
				"hull": 47,
				"edges": [ 0, 2, 2, 4, 4, 6, 6, 8, 8, 10, 10, 12, 12, 14, 14, 16, 16, 18, 18, 20, 20, 22, 22, 24, 24, 26, 26, 28, 28, 30, 30, 32, 32, 34, 34, 36, 36, 38, 38, 40, 40, 42, 42, 44, 44, 46, 46, 48, 48, 50, 50, 52, 52, 54, 54, 56, 56, 58, 58, 60, 60, 62, 62, 64, 64, 66, 66, 68, 68, 70, 70, 72, 72, 74, 74, 76, 76, 78, 78, 80, 80, 82, 82, 84, 84, 86, 86, 88, 88, 90, 90, 92, 0, 92, 96, 98, 112, 70, 112, 114, 102, 104, 100, 102, 100, 66, 64, 94, 94, 96, 62, 106, 106, 108, 108, 110 ],
				"width": 383,
				"height": 533
			}
		},
		"face": {
			"face": { "x": 126.97, "y": -62.18, "rotation": 177.47, "width": 357, "height": 366 }
		},
		"left_arm": {
			"left_arm": {
				"type": "mesh",
				"uvs": [ 0.37529, 0.02256, 0.47653, 0.07336, 0.56882, 0.12162, 0.66833, 0.19227, 0.89996, 0.36929, 0.92913, 0.41057, 0.96345, 0.46296, 1, 0.54949, 1, 0.62127, 1, 0.69986, 1, 0.79988, 1, 0.89911, 1, 0.96817, 0.9686, 1, 0.8605, 1, 0.67691, 1, 0.60142, 0.94991, 0.03286, 0.15429, 0, 0.08841, 0.06031, 0.01856, 0.20443, 0, 0.29808, 0, 0.11692, 0.20827, 0.201, 0.26384, 0.31253, 0.32497, 0.41719, 0.36783, 0.51328, 0.39483, 0.63681, 0.41705, 0.59048, 0.40912, 0.6248, 0.44404, 0.61622, 0.50914, 0.6351, 0.5782, 0.70201, 0.64706, 0.75692, 0.71057, 0.79638, 0.77328, 0.79295, 0.7971, 0.66255, 0.82567, 0.59284, 0.89355, 0.81074, 0.33516, 0.83819, 0.34945, 0.78329, 0.31372, 0.7404, 0.26054, 0.68585, 0.40756, 0.74762, 0.38692, 0.79395, 0.35914, 0.86086, 0.80414, 0.93293, 0.80493 ],
				"triangles": [ 16, 37, 36, 16, 22, 37, 14, 46, 11, 16, 36, 15, 11, 13, 14, 15, 35, 14, 12, 13, 11, 10, 46, 9, 9, 46, 45, 35, 34, 45, 37, 31, 36, 46, 10, 11, 15, 36, 35, 14, 35, 45, 14, 45, 46, 30, 28, 29, 29, 42, 30, 42, 31, 30, 7, 32, 6, 43, 31, 42, 43, 32, 31, 8, 33, 7, 43, 4, 32, 7, 33, 32, 44, 4, 43, 5, 32, 4, 6, 32, 5, 9, 33, 8, 34, 33, 9, 35, 33, 34, 45, 34, 9, 36, 31, 32, 36, 32, 33, 36, 33, 35, 25, 30, 31, 37, 25, 31, 24, 25, 37, 17, 18, 19, 22, 19, 20, 17, 19, 22, 4, 41, 3, 23, 22, 20, 0, 23, 21, 24, 0, 1, 25, 24, 1, 25, 1, 2, 3, 26, 2, 27, 3, 41, 23, 24, 37, 23, 20, 21, 0, 24, 23, 37, 22, 23, 17, 22, 16, 29, 28, 27, 39, 38, 40, 40, 41, 39, 44, 40, 38, 26, 25, 2, 43, 41, 40, 43, 40, 44, 3, 28, 26, 28, 3, 27, 43, 42, 41, 42, 27, 41, 30, 25, 26, 44, 38, 39, 41, 4, 39, 44, 39, 4, 30, 26, 28, 27, 42, 29 ],
				"vertices": [ 1, 9, 8.43, 68.35, 1, 1, 9, 50.88, 71.52, 1, 1, 9, 90.52, 73.66, 1, 1, 9, 142.24, 68.86, 1, 2, 9, 268.7, 52.85, 0.36947, 10, -27.65, 36.49, 0.63053, 2, 9, 293.79, 43.57, 0.02517, 10, -1.28, 40.97, 0.97483, 1, 10, 32.09, 45.89, 1, 1, 10, 86.34, 48.34, 1, 1, 10, 130.07, 41.83, 1, 2, 10, 177.95, 34.7, 0.93901, 11, -83.07, 5.98, 0.06099, 2, 10, 238.9, 25.62, 0.29539, 11, -24.1, 23.85, 0.70461, 1, 11, 34.4, 41.58, 1, 1, 11, 75.11, 53.92, 1, 1, 11, 96.47, 51.04, 1, 1, 11, 105.4, 21.56, 1, 1, 11, 120.58, -28.52, 1, 1, 11, 97.29, -58.06, 1, 1, 9, 11.4, -58.54, 1, 1, 9, -26.22, -40.67, 1, 1, 9, -49.26, -0.47, 1, 1, 9, -32.7, 38.82, 1, 1, 9, -16.12, 59.74, 1, 1, 9, 52.34, -60.42, 1, 1, 9, 94.05, -62.91, 1, 1, 9, 143.31, -61.39, 1, 2, 9, 182.53, -54.42, 0.95915, 10, -48.81, -99.46, 0.04085, 2, 9, 212.57, -43.28, 0.87283, 10, -28.33, -74.83, 0.12717, 2, 9, 245.17, -24.2, 0.68834, 10, -9.6, -42.02, 0.31166, 2, 9, 233.14, -31.51, 0.7907, 10, -16.38, -54.36, 0.2093, 2, 9, 256.07, -37.21, 0.19653, 10, 6.34, -47.85, 0.80347, 2, 9, 285.98, -64.03, 0.05476, 10, 45.64, -56.18, 0.94524, 1, 10, 88.51, -57.13, 1, 1, 10, 133.28, -44.51, 1, 2, 10, 174.28, -34.8, 0.93215, 11, -56.66, -58.4, 0.06785, 2, 10, 214.14, -29.36, 0.6373, 11, -22.95, -36.44, 0.3627, 2, 10, 228.51, -32.49, 0.4047, 11, -8.63, -33.12, 0.5953, 2, 10, 240.45, -71.84, 0.32052, 11, 19, -63.58, 0.67948, 1, 11, 64.77, -70.47, 1, 2, 9, 236.43, 45.99, 0.77155, 10, -52.19, 14.44, 0.22845, 2, 9, 248.19, 46.65, 0.62769, 10, -42.34, 20.88, 0.37231, 2, 9, 221.22, 48.06, 0.92061, 10, -66.41, 8.65, 0.07939, 1, 9, 187.95, 58.83, 1, 2, 9, 249.27, -9.61, 0.65679, 10, -13.32, -27.33, 0.34321, 2, 9, 250.24, 12.08, 0.44221, 10, -23.3, -8.05, 0.55779, 2, 9, 245.03, 33.06, 0.51053, 10, -38.29, 7.53, 0.48947, 2, 10, 235.65, -13.99, 0.25244, 11, -10.09, -13.34, 0.74756, 2, 10, 239.16, 6.25, 0.20992, 11, -15.58, 6.46, 0.79008 ],
				"hull": 22,
				"edges": [ 28, 30, 26, 28, 24, 22, 22, 20, 20, 18, 18, 16, 16, 14, 40, 42, 36, 38, 38, 40, 42, 0, 12, 14, 4, 6, 6, 8, 8, 10, 10, 12, 0, 2, 2, 4, 24, 26, 30, 32, 32, 34, 34, 36 ],
				"width": 285,
				"height": 616
			}
		},
		"left_leg": {
			"left_leg": {
				"type": "mesh",
				"uvs": [ 0.9826, 0.06909, 0.98253, 0.14764, 1, 0.92025, 1, 1, 0.85346, 1, 0.71433, 1, 0.53989, 1, 0.46915, 0.99368, 0.02185, 0.42576, 0, 0.35983, 0, 0.28732, 0.04131, 0.23175, 0.10476, 0.17933, 0.17489, 0.13224, 0.26047, 0.0851, 0.38359, 0.03786, 0.47655, 0.01317, 0.59616, 0, 0.8586, 0, 0.95556, 0.23685, 0.90145, 0.31487, 0.83385, 0.3864, 0.74595, 0.42394, 0.68173, 0.44442, 0.74615, 0.47201, 0.79762, 0.52227, 0.82267, 0.61147, 0.84783, 0.68283, 0.88165, 0.73832, 0.91504, 0.77864, 0.92869, 0.81486, 0.96021, 0.87022, 0.65447, 0.97444, 0.44238, 0.96219, 0.49481, 0.91194, 0.57159, 0.86899, 0.63077, 0.82736, 0.6437, 0.79853, 0.62346, 0.76553, 0.53902, 0.7167, 0.42809, 0.66793, 0.326, 0.62021, 0.24372, 0.56711, 0.16794, 0.50226, 0.09041, 0.479, 0.19966, 0.53199, 0.5342, 0.41903, 0.3908, 0.46574, 0.24922, 0.47874, 0.72442, 0.80028, 0.83991, 0.79366, 0.59963, 0.35945 ],
				"triangles": [ 4, 2, 3, 5, 49, 4, 49, 50, 4, 4, 31, 2, 31, 50, 30, 30, 50, 29, 50, 31, 4, 6, 32, 5, 5, 32, 49, 7, 34, 6, 6, 35, 32, 6, 34, 35, 35, 36, 32, 32, 36, 49, 2, 31, 29, 19, 2, 29, 35, 38, 36, 31, 30, 29, 50, 28, 29, 28, 20, 29, 41, 34, 7, 34, 39, 35, 49, 36, 37, 36, 38, 37, 50, 49, 27, 38, 49, 37, 28, 27, 20, 47, 42, 48, 44, 45, 42, 42, 45, 48, 49, 26, 27, 40, 34, 41, 40, 46, 39, 24, 38, 39, 34, 40, 39, 35, 39, 38, 7, 42, 41, 41, 47, 40, 41, 42, 47, 49, 38, 26, 27, 26, 20, 26, 38, 24, 26, 24, 25, 26, 25, 21, 24, 39, 23, 50, 27, 28, 25, 24, 21, 44, 43, 45, 1, 2, 19, 29, 20, 19, 23, 46, 51, 23, 39, 46, 20, 26, 21, 40, 47, 46, 45, 43, 48, 43, 44, 48, 11, 48, 44, 11, 44, 9, 11, 12, 48, 47, 48, 13, 23, 22, 24, 24, 22, 21, 48, 12, 13, 13, 14, 47, 14, 15, 47, 47, 15, 46, 23, 51, 22, 9, 44, 8, 22, 51, 21, 46, 15, 51, 51, 15, 16, 21, 51, 20, 9, 10, 11, 16, 17, 51, 20, 17, 18, 20, 51, 17, 20, 18, 19, 19, 18, 1, 1, 18, 0, 8, 44, 7, 7, 44, 42 ],
				"vertices": [ 1, 15, -44.96, 45.57, 1, 1, 15, -12.18, 70.98, 1, 1, 17, 58.88, 51.18, 1, 1, 17, 100.88, 48.18, 1, 1, 17, 98.22, 10.91, 1, 1, 17, 95.69, -24.48, 1, 1, 17, 92.52, -68.85, 1, 1, 17, 87.9, -86.6, 1, 1, 15, 254.02, -32.51, 1, 1, 15, 229.94, -58.26, 1, 1, 15, 199.69, -81.73, 1, 1, 15, 170.05, -91.4, 1, 1, 15, 138.27, -95.58, 1, 1, 15, 107.66, -96.7, 1, 1, 15, 74.62, -94.72, 1, 1, 15, 35.67, -85.21, 1, 1, 15, 10.84, -74.48, 1, 1, 15, -13.36, -54.65, 1, 1, 15, -54.39, -1.78, 1, 1, 15, 29.24, 94.43, 1, 1, 15, 70.25, 108.78, 1, 2, 15, 110.65, 118.32, 0.939, 16, 11.03, 112.64, 0.061, 2, 15, 140.05, 112.77, 0.84057, 16, 17.76, 83.48, 0.15943, 2, 15, 158.64, 106.46, 0.79955, 16, 19.45, 63.93, 0.20045, 2, 15, 160.07, 128.37, 0.59112, 16, 40.09, 71.42, 0.40888, 1, 16, 69.67, 70.29, 1, 1, 16, 114.11, 53.44, 1, 2, 16, 150.29, 41.1, 0.8591, 17, -68.92, 21.41, 0.1409, 2, 16, 180.15, 34.7, 0.58036, 17, -39.08, 27.92, 0.41964, 2, 16, 202.92, 32.03, 0.15662, 17, -17.25, 34.9, 0.84338, 1, 17, 2.08, 37.01, 1, 1, 17, 31.81, 42.95, 1, 1, 17, 81.14, -38.74, 1, 1, 17, 70.84, -92.23, 1, 1, 17, 45.33, -77, 1, 1, 17, 24.1, -55.86, 1, 2, 16, 190.95, -43.95, 0.12026, 17, 3.25, -39.24, 0.87974, 2, 16, 179.14, -33.8, 0.23818, 17, -11.7, -34.86, 0.76182, 2, 16, 161.37, -30.02, 0.56647, 17, -29.45, -38.77, 0.43353, 1, 16, 128.43, -36.64, 1, 1, 16, 92.31, -49.22, 1, 1, 16, 57.75, -60.08, 1, 1, 16, 23.1, -65.14, 1, 2, 15, 263.09, 21.68, 0.68433, 16, -16.22, -65.79, 0.31567, 1, 15, 265.51, -1.47, 1, 2, 15, 270.53, 37.7, 0.38664, 16, 1.44, -66.16, 0.61336, 2, 15, 171.11, 68.52, 0.79752, 16, -10.28, 37.26, 0.20248, 2, 15, 213.01, 54.76, 0.7427, 16, -6.05, -6.64, 0.2573, 2, 15, 240.57, 30.44, 0.7137, 16, -17.24, -41.64, 0.2863, 2, 16, 189.78, -16.15, 0.18216, 17, -9.31, -14.4, 0.81784, 2, 16, 200.76, 11.4, 0.10433, 17, -10.7, 15.23, 0.89567, 2, 15, 136.03, 62.42, 0.84198, 16, -29.97, 66.93, 0.15802 ],
				"hull": 19,
				"edges": [ 0, 2, 2, 4, 4, 6, 6, 8, 8, 10, 10, 12, 12, 14, 16, 18, 18, 20, 34, 36, 36, 0, 32, 34, 20, 22, 22, 24, 28, 30, 30, 32, 24, 26, 26, 28, 14, 16 ],
				"width": 255,
				"height": 528
			}
		},
		"loincloth": {
			"loincloth": {
				"type": "mesh",
				"uvs": [ 0.97744, 0, 1, 0.04168, 1, 0.10675, 1, 0.22225, 0.93969, 0.20273, 0.84201, 0.17507, 0.73322, 0.15718, 0.62444, 0.16531, 0.54229, 0.19622, 0.47791, 0.24828, 0.44239, 0.32473, 0.43573, 0.40282, 0.43795, 0.47277, 0.45349, 0.53783, 0.47125, 0.60941, 0.46459, 0.67285, 0.46459, 0.73467, 0.44905, 0.80299, 0.43129, 0.88107, 0.39132, 0.89609, 0.38244, 0.96116, 0.3891, 1, 0.34692, 1, 0.32472, 0.95953, 0.29364, 0.89935, 0.27144, 0.83753, 0.24701, 0.76433, 0.22925, 0.71227, 0.19817, 0.66835, 0.17597, 0.696, 0.12713, 0.65208, 0.11159, 0.59515, 0.13157, 0.57237, 0.09605, 0.49917, 0.08051, 0.41783, 0.06718, 0.33975, 0.07829, 0.29258, 0.03166, 0.36253, 0, 0.39506, 0, 0.32836, 0.02944, 0.25516, 0.06718, 0.18196, 0.11825, 0.11852, 0.17819, 0.07948, 0.23813, 0.03393, 0.3003, 0.03718, 0.2892, 0.06483, 0.38244, 0.08436, 0.49123, 0.08924, 0.61112, 0.08924, 0.72434, 0.08598, 0.83757, 0.07297, 0.92859, 0.03555, 0.93747, 0, 0.35346, 0.93286, 0.33896, 0.87869, 0.31577, 0.79796, 0.30417, 0.7183, 0.28097, 0.63226, 0.26358, 0.5441, 0.24618, 0.47201, 0.24618, 0.39022, 0.1737, 0.29569, 0.16355, 0.18522, 0.33026, 0.30525, 0.42014, 0.21815, 0.35201, 0.45502, 0.36361, 0.55805, 0.3723, 0.67277, 0.38825, 0.77049, 0.3868, 0.8491, 0.14326, 0.45077, 0.13456, 0.34986, 0.34476, 0.34774, 0.1679, 0.53044, 0.20704, 0.59735, 0.23893, 0.68446 ],
				"triangles": [ 61, 62, 64, 73, 64, 10, 40, 41, 36, 36, 41, 63, 46, 62, 63, 64, 65, 10, 65, 48, 8, 4, 5, 51, 63, 42, 43, 46, 63, 43, 46, 44, 45, 8, 48, 49, 8, 49, 7, 7, 50, 6, 6, 51, 5, 4, 51, 52, 4, 52, 2, 52, 53, 0, 2, 52, 1, 0, 1, 52, 6, 50, 51, 7, 49, 50, 65, 47, 48, 65, 46, 47, 43, 44, 46, 4, 2, 3, 9, 65, 8, 65, 64, 46, 10, 65, 9, 41, 42, 63, 64, 62, 46, 36, 63, 62, 39, 40, 36, 56, 57, 69, 26, 57, 56, 17, 69, 16, 25, 26, 56, 70, 56, 69, 70, 69, 17, 55, 56, 70, 25, 56, 55, 18, 70, 17, 19, 70, 18, 55, 70, 19, 24, 25, 55, 54, 55, 19, 24, 55, 54, 23, 24, 54, 20, 54, 19, 20, 22, 23, 20, 23, 54, 22, 20, 21, 32, 74, 75, 58, 59, 67, 75, 59, 58, 30, 31, 32, 30, 32, 75, 28, 30, 75, 28, 75, 58, 14, 68, 67, 14, 67, 13, 58, 67, 68, 15, 68, 14, 76, 28, 58, 29, 30, 28, 27, 28, 76, 57, 58, 68, 76, 58, 57, 27, 76, 57, 68, 15, 16, 26, 27, 57, 69, 68, 16, 57, 68, 69, 36, 37, 39, 72, 36, 62, 35, 36, 72, 61, 64, 73, 72, 62, 61, 38, 39, 37, 11, 73, 10, 34, 35, 72, 71, 72, 61, 34, 72, 71, 66, 73, 11, 61, 73, 66, 60, 61, 66, 71, 61, 60, 66, 11, 12, 33, 34, 71, 74, 71, 60, 33, 71, 74, 59, 60, 66, 74, 60, 59, 67, 66, 12, 67, 12, 13, 59, 66, 67, 32, 33, 74, 75, 74, 59 ],
				"vertices": [ 1, 4, -86.13, 85.24, 1, 1, 4, -74.09, 100.88, 1, 1, 4, -49.36, 114.51, 1, 1, 4, -5.46, 138.71, 1, 1, 4, -3.62, 117.83, 1, 1, 4, 0.86, 84.83, 1, 1, 4, 10.76, 50.79, 1, 1, 4, 30.56, 22.19, 1, 1, 4, 54.92, 5.79, 1, 1, 4, 84.59, -1.23, 1, 2, 6, -20.94, 69.88, 0.23847, 4, 119.1, 4.9, 0.76153, 3, 6, 12.75, 65.65, 0.77938, 7, -55.88, 80.05, 0.01271, 4, 149.8, 19.4, 0.20791, 2, 6, 43.09, 64.46, 0.84897, 7, -26.43, 72.64, 0.15103, 2, 6, 71.59, 67.63, 0.53566, 7, 2.11, 69.88, 0.46434, 3, 6, 102.94, 71.33, 0.21467, 7, 33.55, 67.04, 0.77543, 8, -55.79, 70.13, 0.0099, 3, 6, 130.29, 67.5, 0.06154, 7, 59.53, 57.66, 0.82138, 8, -29.75, 60.95, 0.11707, 3, 6, 157.07, 65.83, 0.00749, 7, 85.38, 50.5, 0.56366, 8, -3.84, 54, 0.42886, 2, 7, 112.64, 37.84, 0.15238, 8, 23.52, 41.54, 0.84762, 2, 7, 143.8, 23.36, 0.002, 8, 54.79, 27.3, 0.998, 1, 8, 57.79, 13.34, 1, 1, 8, 84.33, 3.3, 1, 1, 8, 101.16, 0.97, 1, 1, 8, 97.69, -11.98, 1, 1, 8, 78.89, -14.25, 1, 1, 8, 51.1, -17.03, 1, 1, 8, 23.36, -16.89, 1, 2, 7, 79.34, -19.61, 0.33571, 8, -9.33, -16.16, 0.66429, 2, 7, 56.06, -19.03, 0.9564, 8, -32.62, -15.76, 0.0436, 1, 7, 35.06, -23.48, 1, 2, 6, 134.59, -24.73, 0, 7, 44.74, -33.48, 1, 2, 6, 114.6, -39.04, 0.00768, 7, 22.23, -43.37, 0.99232, 2, 6, 89.63, -42.43, 0.13637, 7, -2.9, -41.54, 0.86363, 2, 6, 80.16, -35.47, 0.33589, 7, -10.74, -32.79, 0.66411, 2, 6, 47.75, -44.77, 0.93669, 7, -44.37, -35.2, 0.06331, 1, 6, 12.21, -47.5, 1, 2, 6, -21.88, -49.61, 0.80498, 4, 182.41, -96.44, 0.19502, 2, 6, -42.09, -44.81, 0.33874, 4, 162.77, -103.24, 0.66126, 2, 6, -12.72, -61.5, 0.78457, 4, 196.52, -101.56, 0.21543, 2, 6, 0.75, -72.43, 0.92107, 4, 213.74, -103.56, 0.07893, 2, 6, -28.14, -70.63, 0.41282, 4, 188.39, -117.54, 0.58718, 1, 4, 156.05, -124.68, 1, 1, 4, 122.44, -129.5, 1, 1, 4, 90.48, -128.58, 1, 1, 4, 66.44, -120.06, 1, 1, 4, 39.93, -112.91, 1, 1, 4, 31.62, -94.92, 1, 1, 4, 43.84, -92.22, 1, 1, 4, 36.94, -62.16, 1, 1, 4, 22.09, -30.84, 1, 1, 4, 3.69, 2.54, 1, 1, 4, -14.93, 33.39, 1, 1, 4, -37.26, 62.2, 1, 1, 4, -65.46, 79.71, 1, 1, 4, -80.33, 74.73, 1, 1, 8, 70.08, -2.42, 1, 1, 8, 46.18, -0.78, 1, 2, 7, 99.24, -2.43, 0.00241, 8, 10.43, 1.17, 0.99759, 3, 6, 146.79, 15.36, 3.3E-4, 7, 64.94, 3.23, 0.98992, 8, -23.92, 6.57, 0.00975, 2, 6, 109.06, 10.32, 0.01289, 7, 26.98, 6.08, 0.98711, 2, 6, 70.53, 7.19, 0.70691, 7, -11.37, 10.95, 0.29309, 1, 6, 38.96, 3.62, 1, 2, 6, 3.53, 5.83, 0.94997, 4, 174.11, -36.02, 0.05003, 2, 6, -38.85, -14.61, 0.33344, 4, 149.31, -76.01, 0.66656, 1, 4, 108.88, -101.98, 1, 2, 6, -31.61, 34.82, 0.10096, 4, 128.9, -30.41, 0.89904, 1, 4, 82, -23.63, 1, 2, 6, 33.7, 37.67, 0.94903, 7, -41.14, 48.36, 0.05097, 2, 6, 78.56, 38.56, 0.46381, 7, 2.95, 39.99, 0.53619, 3, 6, 128.42, 38.21, 0.03637, 7, 51.67, 29.38, 0.90654, 8, -37.39, 32.61, 0.05709, 3, 6, 171.07, 40.63, 1.1E-4, 7, 93.9, 22.96, 0.26772, 8, 4.89, 26.52, 0.73217, 2, 7, 126.65, 13.42, 0.00939, 8, 37.72, 17.24, 0.99061, 2, 6, 27.72, -28.47, 0.99773, 7, -60.61, -15.13, 0.00227, 2, 6, -16.16, -28.5, 0.88625, 4, 175.91, -75.56, 0.11375, 2, 6, -12.91, 38.27, 0.48638, 4, 142.83, -17.47, 0.51362, 2, 6, 62.72, -22.81, 0.78129, 7, -25.2, -16.8, 0.21871, 2, 6, 92.48, -12.2, 0.02032, 7, 6.11, -12.54, 0.97968, 2, 7, 45.25, -12.85, 0.99919, 8, -43.48, -9.66, 8.1E-4 ],
				"hull": 54,
				"edges": [ 0, 2, 2, 4, 4, 6, 6, 8, 8, 10, 10, 12, 12, 14, 14, 16, 16, 18, 18, 20, 20, 22, 22, 24, 24, 26, 26, 28, 28, 30, 30, 32, 32, 34, 34, 36, 36, 38, 38, 40, 40, 42, 42, 44, 44, 46, 46, 48, 48, 50, 50, 52, 52, 54, 54, 56, 56, 58, 58, 60, 60, 62, 62, 64, 64, 66, 66, 68, 68, 70, 70, 72, 72, 74, 74, 76, 76, 78, 78, 80, 80, 82, 82, 84, 84, 86, 86, 88, 88, 90, 90, 92, 92, 94, 94, 96, 96, 98, 98, 100, 100, 102, 102, 104, 104, 106, 0, 106 ],
				"width": 318,
				"height": 434
			}
		},
		"right_arm": {
			"right_arm": {
				"type": "mesh",
				"uvs": [ 0.90334, 0, 0.94448, 0, 0.96179, 0.043, 0.96179, 0.09754, 0.97189, 0.18758, 0.97373, 0.26701, 0.95811, 0.3354, 0.94617, 0.36397, 0.94984, 0.38821, 0.9333, 0.41592, 0.91952, 0.46354, 0.87266, 0.51115, 0.81662, 0.54925, 0.78262, 0.56829, 0.76976, 0.57955, 0.80146, 0.57264, 0.84842, 0.54752, 0.903, 0.51125, 0.92669, 0.48214, 0.97915, 0.48972, 1, 0.50088, 1, 0.524, 0.98296, 0.55709, 0.95081, 0.58141, 0.90681, 0.585, 0.88565, 0.60653, 0.81119, 0.65397, 0.76846, 0.65875, 0.76381, 0.68905, 0.6775, 0.71935, 0.66481, 0.71097, 0.59881, 0.79469, 0.54381, 0.81303, 0.48315, 0.88438, 0.4233, 0.91766, 0.31903, 1, 0.2721, 1, 0.21997, 0.9717, 0.17565, 0.96678, 0.10005, 0.98889, 0.03618, 0.97415, 0, 0.92503, 0, 0.87221, 0.02706, 0.81203, 0.07007, 0.77887, 0.09093, 0.77764, 0.11308, 0.78993, 0.19259, 0.7801, 0.3112, 0.73957, 0.41157, 0.72974, 0.52497, 0.68184, 0.61881, 0.63395, 0.65009, 0.57131, 0.68789, 0.55289, 0.71917, 0.52709, 0.7296, 0.50744, 0.75567, 0.46568, 0.80129, 0.41042, 0.85343, 0.36989, 0.85082, 0.31304, 0.83127, 0.24548, 0.82866, 0.1632, 0.83388, 0.09196, 0.8417, 0.03546, 0.8795, 0, 0.73612, 0.54271, 0.75828, 0.56236, 0.8808, 0.36953, 0.9212, 0.38059, 0.0792, 0.90748, 0.19781, 0.87555, 0.349, 0.8301, 0.48977, 0.76869, 0.61881, 0.70606, 0.7296, 0.63114, 0.83648, 0.58938, 0.93424, 0.53657, 0.71135, 0.60534, 0.71917, 0.66798 ],
				"triangles": [ 14, 66, 13, 77, 65, 66, 17, 18, 76, 76, 18, 19, 17, 76, 16, 76, 75, 16, 75, 74, 14, 22, 76, 21, 26, 27, 75, 23, 76, 22, 34, 35, 71, 71, 35, 36, 40, 69, 39, 39, 69, 38, 40, 41, 69, 38, 70, 37, 36, 37, 71, 37, 70, 71, 38, 69, 70, 41, 42, 69, 34, 71, 33, 42, 43, 69, 69, 43, 46, 69, 46, 70, 46, 44, 45, 44, 46, 43, 33, 72, 32, 33, 71, 72, 46, 47, 70, 71, 47, 48, 71, 70, 47, 71, 49, 72, 71, 48, 49, 32, 72, 31, 31, 73, 30, 31, 72, 73, 72, 50, 73, 72, 49, 50, 29, 78, 28, 29, 30, 78, 30, 73, 78, 50, 51, 73, 74, 78, 73, 28, 78, 27, 74, 73, 51, 78, 74, 27, 77, 74, 51, 75, 27, 74, 51, 52, 77, 74, 77, 14, 52, 53, 77, 65, 77, 53, 24, 76, 23, 25, 75, 24, 26, 75, 25, 76, 24, 75, 21, 76, 20, 76, 19, 20, 75, 14, 15, 77, 66, 14, 75, 15, 16, 65, 53, 54, 13, 66, 12, 66, 65, 12, 56, 11, 12, 54, 55, 65, 55, 56, 12, 12, 65, 55, 56, 57, 11, 11, 57, 10, 10, 58, 67, 58, 10, 57, 9, 67, 68, 9, 10, 67, 9, 68, 8, 68, 7, 8, 68, 67, 7, 58, 59, 67, 7, 67, 6, 6, 67, 59, 6, 59, 5, 59, 60, 5, 60, 4, 5, 4, 61, 3, 3, 61, 62, 62, 63, 3, 61, 4, 60, 2, 3, 63, 63, 64, 0, 2, 63, 0, 0, 1, 2 ],
				"vertices": [ 1, 12, -68.79, 7.67, 1, 1, 12, -67.75, 36.53, 1, 1, 12, -35.3, 47.51, 1, 1, 12, 5.31, 46.05, 1, 1, 12, 72.61, 50.71, 1, 1, 12, 131.79, 49.87, 1, 2, 12, 182.31, 37.07, 0.92571, 13, -66.49, 5.96, 0.07429, 2, 12, 203.28, 27.92, 0.83713, 13, -44.89, 13.48, 0.16287, 2, 12, 221.42, 29.85, 0.27656, 13, -32.88, 27.22, 0.72344, 2, 12, 241.63, 17.5, 0.04905, 13, -9.66, 31.88, 0.95095, 1, 13, 23.54, 47.68, 1, 1, 13, 71.89, 45.88, 1, 1, 13, 119.06, 34.56, 1, 2, 13, 145.38, 25.72, 0.83943, 14, -10.02, 33.24, 0.16057, 1, 14, 1.24, 28.23, 1, 1, 14, -12.24, 46.67, 1, 1, 14, -42.4, 69.64, 1, 1, 14, -82.3, 94.26, 1, 1, 14, -108.77, 101.04, 1, 1, 14, -118.05, 137.12, 1, 1, 14, -116.15, 153.85, 1, 1, 14, -100.31, 160.61, 1, 1, 14, -72.94, 159.29, 1, 1, 14, -47.41, 145.65, 1, 1, 14, -32.82, 118.3, 1, 1, 14, -12.24, 110.94, 1, 1, 14, 40.8, 76.76, 1, 1, 14, 55.86, 50.57, 1, 1, 14, 77.9, 56.43, 1, 1, 14, 122.46, 9.58, 1, 1, 14, 120.22, -1.06, 1, 1, 14, 195.78, -19.17, 1, 1, 14, 223.51, -49.31, 1, 1, 14, 289.12, -67.58, 1, 1, 14, 328.42, -96.48, 1, 1, 14, 413.59, -139.7, 1, 1, 14, 426.53, -169.99, 1, 1, 14, 421.52, -211.93, 1, 1, 14, 430.37, -241.98, 1, 1, 14, 466.37, -284.31, 1, 1, 14, 473.88, -329.86, 1, 1, 14, 450.2, -367.59, 1, 1, 14, 414.02, -383.05, 1, 1, 14, 365.33, -383.19, 1, 1, 14, 330.74, -365.13, 1, 1, 14, 324.15, -352.03, 1, 1, 14, 326.46, -334.13, 1, 1, 14, 297.8, -285.67, 1, 1, 14, 237.32, -220.96, 1, 1, 14, 202.91, -159.05, 1, 1, 14, 138.83, -99.86, 1, 1, 14, 80.13, -53.3, 1, 1, 14, 28.59, -51.43, 1, 2, 13, 180.05, -32.18, 0.03008, 14, 5.55, -32.42, 0.96992, 2, 13, 151.16, -28.06, 0.59741, 14, -20.75, -19.77, 0.40259, 2, 13, 135.29, -32.06, 0.84665, 14, -37.09, -18.79, 0.15335, 2, 13, 99.77, -38.48, 0.94752, 14, -72.89, -14.18, 0.05248, 2, 12, 234.18, -74.97, 0.09177, 13, 47.67, -41.05, 0.90823, 2, 12, 205.33, -37.3, 0.51259, 13, 0.91, -33, 0.48741, 2, 12, 162.94, -37.6, 0.95472, 13, -30, -62.01, 0.04528, 1, 12, 112.15, -49.5, 1, 1, 12, 50.82, -49.11, 1, 1, 12, -2.08, -43.54, 1, 1, 12, -43.95, -36.53, 1, 1, 12, -69.39, -9.06, 1, 2, 13, 152.22, -11.46, 0.40611, 14, -14.73, -4.27, 0.59389, 2, 13, 153.17, 9.88, 0.37396, 14, -7.38, 15.79, 0.62604, 2, 12, 205.76, -18.09, 0.33759, 13, -11.82, -18.6, 0.66241, 2, 12, 215.02, 9.96, 0.29068, 13, -24.08, 8.27, 0.70932, 1, 14, 416.34, -321.6, 1, 1, 14, 361.75, -254.38, 1, 1, 14, 288.92, -170.07, 1, 1, 14, 208.03, -97.16, 1, 1, 14, 129.53, -32.19, 1, 1, 14, 47.65, 17.41, 1, 1, 14, -10.43, 74.18, 1, 1, 14, -73.57, 121.84, 1, 1, 14, 35.02, -1.92, 1, 1, 14, 75.77, 21.46, 1 ],
				"hull": 65,
				"edges": [ 0, 2, 2, 4, 4, 6, 6, 8, 8, 10, 10, 12, 12, 14, 14, 16, 16, 18, 18, 20, 20, 22, 22, 24, 24, 26, 26, 28, 28, 30, 30, 32, 32, 34, 34, 36, 36, 38, 38, 40, 40, 42, 42, 44, 44, 46, 46, 48, 48, 50, 50, 52, 52, 54, 54, 56, 56, 58, 58, 60, 60, 62, 62, 64, 64, 66, 66, 68, 68, 70, 70, 72, 72, 74, 74, 76, 76, 78, 78, 80, 80, 82, 82, 84, 84, 86, 86, 88, 88, 90, 90, 92, 92, 94, 94, 96, 96, 98, 98, 100, 100, 102, 102, 104, 104, 106, 106, 108, 108, 110, 110, 112, 112, 114, 114, 116, 116, 118, 118, 120, 120, 122, 122, 124, 124, 126, 126, 128, 0, 128, 138, 140, 140, 142, 142, 144, 144, 146, 146, 148, 148, 150, 150, 152, 152, 40, 138, 82 ],
				"width": 702,
				"height": 745
			}
		},
		"right_leg": {
			"right_leg": {
				"type": "mesh",
				"uvs": [ 0.9606, 0.03032, 1, 0.09343, 1, 0.16159, 1, 0.20467, 0.81172, 0.88384, 0.75073, 0.9213, 0.59045, 1, 0.51245, 1, 0.43043, 1, 0.35652, 1, 0.27439, 0.97058, 0.01188, 0.47342, 0, 0.43928, 0, 0.40799, 0.01419, 0.37311, 0.04139, 0.33098, 0.08919, 0.2882, 0.15463, 0.23457, 0.25767, 0.16396, 0.3858, 0.10171, 0.6009, 0.02452, 0.73428, 0, 0.87058, 0, 0.92704, 0.27088, 0.82627, 0.31457, 0.72511, 0.32718, 0.64273, 0.38152, 0.56021, 0.4239, 0.49406, 0.44704, 0.53741, 0.45992, 0.60576, 0.481, 0.65449, 0.52613, 0.68038, 0.60488, 0.69092, 0.65145, 0.70837, 0.71949, 0.72378, 0.75646, 0.75412, 0.79214, 0.8045, 0.83725, 0.68593, 0.9253, 0.64978, 0.95662, 0.46653, 0.98982, 0.31288, 0.97955, 0.30168, 0.93613, 0.37909, 0.93102, 0.46547, 0.90437, 0.52656, 0.84411, 0.57566, 0.7911, 0.57743, 0.76192, 0.55703, 0.72163, 0.50025, 0.67082, 0.39103, 0.63244, 0.29394, 0.59826, 0.19565, 0.56281, 0.13205, 0.53507, 0.07637, 0.51599, 0.02571, 0.49943, 0.50692, 0.0591, 0.05985, 0.46324, 0.13804, 0.47319, 0.25069, 0.48031, 0.39567, 0.45847, 0.61772, 0.79688, 0.681, 0.77556 ],
				"triangles": [ 36, 35, 24, 37, 36, 24, 37, 3, 4, 45, 44, 50, 36, 62, 35, 5, 36, 37, 5, 37, 4, 36, 38, 62, 5, 38, 36, 61, 62, 38, 43, 50, 44, 43, 42, 50, 39, 61, 38, 42, 10, 52, 41, 42, 43, 10, 42, 41, 7, 40, 44, 8, 43, 44, 45, 46, 61, 45, 61, 39, 9, 41, 43, 8, 9, 43, 10, 41, 9, 44, 40, 8, 45, 7, 44, 6, 7, 45, 8, 40, 7, 39, 6, 45, 39, 38, 5, 6, 39, 5, 29, 27, 30, 30, 26, 31, 53, 54, 58, 52, 58, 59, 53, 58, 52, 51, 59, 60, 52, 59, 51, 24, 32, 31, 50, 51, 60, 24, 33, 32, 49, 28, 29, 49, 29, 30, 49, 30, 31, 49, 31, 32, 48, 49, 32, 50, 60, 28, 49, 50, 28, 24, 35, 34, 33, 48, 32, 48, 33, 34, 34, 33, 24, 47, 48, 34, 62, 47, 34, 62, 34, 35, 46, 48, 47, 61, 46, 47, 62, 61, 47, 45, 49, 48, 45, 48, 46, 45, 50, 49, 50, 42, 51, 42, 52, 51, 53, 52, 10, 54, 53, 10, 56, 19, 20, 22, 0, 1, 1, 2, 22, 2, 23, 22, 3, 23, 2, 24, 21, 22, 24, 22, 23, 25, 20, 21, 25, 21, 24, 25, 56, 20, 26, 56, 25, 27, 56, 26, 19, 56, 27, 57, 12, 13, 28, 19, 27, 60, 18, 19, 28, 60, 19, 59, 17, 18, 29, 28, 27, 58, 57, 15, 14, 15, 57, 57, 13, 14, 58, 16, 17, 59, 58, 17, 58, 15, 16, 11, 12, 57, 18, 60, 59, 30, 27, 26, 55, 11, 57, 54, 57, 58, 55, 57, 54, 31, 26, 25, 24, 31, 25, 23, 37, 24, 3, 37, 23, 55, 54, 10, 11, 55, 10 ],
				"vertices": [ 1, 18, -74.29, -1.32, 1, 1, 18, -67.8, 36.67, 1, 1, 18, -46.63, 68.18, 1, 1, 18, -33.25, 88.11, 1, 1, 20, 15.77, 53.6, 1, 1, 20, 47.68, 49.72, 1, 1, 20, 123.46, 32.07, 1, 1, 20, 144.63, 9.05, 1, 1, 20, 166.89, -15.16, 1, 1, 20, 186.95, -36.98, 1, 1, 20, 197.18, -72.31, 1, 2, 18, 378.75, -9, 0.69196, 19, -46.61, -76.6, 0.30804, 3, 18, 372.18, -27.29, 0.79695, 19, -62.97, -66.19, 0.20302, 20, 55.22, -352.84, 4.0E-5, 2, 18, 362.53, -41.65, 0.86627, 19, -74.84, -53.66, 0.13373, 1, 18, 347.21, -54.44, 1, 1, 18, 325.07, -67.84, 1, 1, 18, 295.88, -76.93, 1, 1, 18, 257.44, -87.1, 1, 1, 18, 201.21, -96.7, 1, 1, 18, 139.22, -96.84, 1, 1, 18, 43.65, -84.43, 1, 1, 18, -8.37, -65.94, 1, 1, 18, -53.74, -35.47, 1, 1, 18, 11.6, 102.4, 1, 1, 18, 58.71, 100.07, 1, 2, 18, 96.28, 83.27, 0.97039, 19, 105.04, 178.2, 0.02961, 2, 18, 140.54, 89.95, 0.89603, 19, 101.86, 133.65, 0.10397, 2, 18, 181.09, 91.06, 0.71383, 19, 94.08, 93.93, 0.28617, 2, 18, 210.37, 87.82, 0.51428, 19, 84.51, 66.12, 0.48572, 2, 18, 200.22, 104.19, 0.38204, 19, 102.68, 72.42, 0.61796, 2, 18, 184.29, 129.49, 0.22196, 19, 130.8, 82.38, 0.77804, 2, 18, 182.46, 161.29, 0.12721, 19, 162.16, 77.2, 0.87279, 2, 18, 198.91, 203.34, 0.08146, 19, 199.49, 51.97, 0.91854, 2, 19, 220.2, 35.75, 0.94199, 20, -46.73, -69.68, 0.05801, 2, 19, 251, 12.59, 0.86035, 20, -23.56, -38.87, 0.13965, 2, 19, 269.18, 1.61, 0.60551, 20, -12.59, -20.69, 0.39449, 2, 19, 291.81, -4.78, 0.32097, 20, -6.2, 1.94, 0.67903, 2, 19, 323.77, -9.61, 0.0627, 20, -1.37, 33.9, 0.9373, 1, 20, 66.91, 32.1, 1, 1, 20, 89.57, 33.23, 1, 1, 20, 152.92, -8.34, 1, 1, 20, 190.41, -57.57, 1, 1, 20, 175.64, -77.25, 1, 1, 20, 152.54, -56.32, 1, 1, 20, 118.17, -40.87, 1, 2, 19, 244.32, -87.86, 0.20114, 20, 76.88, -45.55, 0.79886, 2, 19, 238.82, -52.79, 0.48739, 20, 41.82, -51.05, 0.51261, 2, 19, 228.34, -40.35, 0.73654, 20, 29.37, -61.53, 0.26346, 2, 19, 207.13, -29.37, 0.93194, 20, 18.39, -82.74, 0.06806, 2, 19, 171.22, -23.94, 0.95321, 20, 12.97, -118.65, 0.04679, 1, 19, 124.51, -37.85, 1, 2, 18, 324.43, 111.89, 0.00507, 19, 82.97, -50.19, 0.99493, 2, 18, 345.64, 73.21, 0.13041, 19, 40.67, -62.36, 0.86959, 2, 18, 357.96, 46.14, 0.31547, 19, 11.62, -68.43, 0.68453, 2, 18, 370.48, 24.89, 0.46502, 19, -11.81, -75.97, 0.53498, 2, 18, 382.19, 5.96, 0.5863, 19, -32.8, -83.22, 0.4137, 1, 18, 85.67, -89.45, 1, 2, 18, 359.64, -2.89, 0.69512, 19, -36.48, -59.33, 0.30488, 2, 18, 336.68, 19.23, 0.57933, 19, -9.92, -41.82, 0.42067, 2, 18, 301.39, 47.91, 0.30993, 19, 25.73, -13.74, 0.69007, 2, 18, 246.49, 70.82, 0.29916, 19, 60.06, 34.68, 0.70084, 2, 19, 253.42, -43.75, 0.3786, 20, 32.77, -36.45, 0.6214, 2, 19, 264.03, -17.83, 0.50038, 20, 6.85, -25.85, 0.49962 ],
				"hull": 23,
				"edges": [ 42, 44, 2, 4, 4, 6, 12, 14, 14, 16, 16, 18, 24, 26, 18, 20, 20, 22, 22, 24, 6, 8, 8, 10, 10, 12, 44, 0, 0, 2, 40, 42, 36, 38, 38, 40, 34, 36, 26, 28, 28, 30, 30, 32, 32, 34, 56, 54, 54, 52, 52, 50, 56, 58, 58, 60, 60, 62 ],
				"width": 401,
				"height": 557
			}
		}
	}
},
"animations": {
	"attack": {
		"bones": {
			"right_arm": {
				"rotate": [
					{
						"time": 0,
						"angle": 0,
						"curve": [ 0.389, 0, 0.657, 0.74 ]
					},
					{
						"time": 0.4333,
						"angle": -126.97,
						"curve": [ 0.316, 0.62, 0.647, 0.99 ]
					},
					{ "time": 0.6667, "angle": -137.74, "curve": "stepped" },
					{ "time": 0.7333, "angle": -137.74 },
					{ "time": 0.8333, "angle": -56.29, "curve": "stepped" },
					{ "time": 1.1667, "angle": -56.29 }
				],
				"translate": [
					{ "time": 0.4333, "x": 0, "y": 0 }
				]
			},
			"bone9": {
				"rotate": [
					{
						"time": 0,
						"angle": 0,
						"curve": [ 0.389, 0, 0.657, 0.74 ]
					},
					{
						"time": 0.4333,
						"angle": -33.32,
						"curve": [ 0.316, 0.62, 0.647, 0.99 ]
					},
					{ "time": 0.6667, "angle": -36.14, "curve": "stepped" },
					{ "time": 0.7333, "angle": -36.14 },
					{ "time": 0.8333, "angle": 36.69, "curve": "stepped" },
					{ "time": 1.1667, "angle": 36.69 }
				],
				"translate": [
					{ "time": 0.4333, "x": 0, "y": 0 }
				]
			},
			"bone10": {
				"rotate": [
					{
						"time": 0,
						"angle": 0,
						"curve": [ 0.389, 0, 0.657, 0.74 ]
					},
					{
						"time": 0.4333,
						"angle": -35.05,
						"curve": [ 0.316, 0.62, 0.647, 0.99 ]
					},
					{ "time": 0.6667, "angle": -38.02, "curve": "stepped" },
					{ "time": 0.7333, "angle": -38.02 },
					{ "time": 0.8333, "angle": 0.8, "curve": "stepped" },
					{ "time": 1.1667, "angle": 0.8 }
				],
				"translate": [
					{ "time": 0.4333, "x": 0, "y": 0 }
				]
			},
			"IK_left_reg": {
				"rotate": [
					{ "time": 0.4333, "angle": 0 }
				],
				"translate": [
					{
						"time": 0,
						"x": 0,
						"y": 0,
						"curve": [ 0.389, 0, 0.657, 0.74 ]
					},
					{
						"time": 0.4333,
						"x": -266.89,
						"y": 297.93,
						"curve": [ 0.316, 0.62, 0.647, 0.99 ]
					},
					{ "time": 0.6667, "x": -289.54, "y": 323.21, "curve": "stepped" },
					{ "time": 0.7333, "x": -289.54, "y": 323.21 },
					{ "time": 0.8333, "x": -149.39, "y": -17, "curve": "stepped" },
					{ "time": 1.1667, "x": -149.39, "y": -17 }
				]
			},
			"Waist": {
				"rotate": [
					{
						"time": 0,
						"angle": 0,
						"curve": [ 0.389, 0, 0.657, 0.74 ]
					},
					{
						"time": 0.4333,
						"angle": -22.86,
						"curve": [ 0.316, 0.62, 0.647, 0.99 ]
					},
					{ "time": 0.6667, "angle": -24.8, "curve": "stepped" },
					{ "time": 0.7333, "angle": -24.8 },
					{ "time": 0.8333, "angle": 27.8, "curve": "stepped" },
					{ "time": 1.1667, "angle": 27.8 }
				],
				"translate": [
					{
						"time": 0,
						"x": 0,
						"y": 0,
						"curve": [ 0.389, 0, 0.657, 0.74 ]
					},
					{
						"time": 0.4333,
						"x": 63.36,
						"y": 15.84,
						"curve": [ 0.316, 0.62, 0.647, 0.99 ]
					},
					{ "time": 0.6667, "x": 68.74, "y": 17.18, "curve": "stepped" },
					{ "time": 0.7333, "x": 68.74, "y": 17.18 },
					{ "time": 0.8333, "x": -95.62, "y": -68.47, "curve": "stepped" },
					{ "time": 1.1667, "x": -95.62, "y": -68.47 }
				]
			},
			"Upper body": {
				"rotate": [
					{
						"time": 0,
						"angle": 0,
						"curve": [ 0.389, 0, 0.657, 0.74 ]
					},
					{
						"time": 0.4333,
						"angle": -20.26,
						"curve": [ 0.316, 0.62, 0.647, 0.99 ]
					},
					{ "time": 0.6667, "angle": -21.98, "curve": "stepped" },
					{ "time": 0.7333, "angle": -21.98 },
					{ "time": 0.8333, "angle": -13.17, "curve": "stepped" },
					{ "time": 1.1667, "angle": -13.17 }
				],
				"translate": [
					{
						"time": 0,
						"x": 0,
						"y": 0,
						"curve": [ 0.389, 0, 0.657, 0.74 ]
					},
					{
						"time": 0.4333,
						"x": -42.72,
						"y": -1.15,
						"curve": [ 0.316, 0.62, 0.647, 0.99 ]
					},
					{ "time": 0.6667, "x": -46.34, "y": -1.24, "curve": "stepped" },
					{ "time": 0.7333, "x": -46.34, "y": -1.24 },
					{ "time": 0.8333, "x": 0, "y": 0, "curve": "stepped" },
					{ "time": 1.1667, "x": 0, "y": 0 }
				],
				"scale": [
					{
						"time": 0,
						"x": 1,
						"y": 1,
						"curve": [ 0.383, 0, 0.622, 1 ]
					},
					{ "time": 0.6667, "x": 1.03, "y": 1.03, "curve": "stepped" },
					{ "time": 0.7333, "x": 1.03, "y": 1.03 },
					{ "time": 0.8333, "x": 1, "y": 1, "curve": "stepped" },
					{ "time": 1.1667, "x": 1, "y": 1 }
				]
			},
			"bone16": {
				"rotate": [
					{ "time": 0, "angle": 0, "curve": "stepped" },
					{ "time": 0.4333, "angle": 0, "curve": "stepped" },
					{ "time": 0.6667, "angle": 0, "curve": "stepped" },
					{ "time": 0.7333, "angle": 0 },
					{ "time": 0.8333, "angle": 5.99, "curve": "stepped" },
					{ "time": 1.1667, "angle": 5.99 }
				],
				"translate": [
					{ "time": 0.4333, "x": 0, "y": 0 }
				]
			},
			"bone13": {
				"rotate": [
					{ "time": 0, "angle": 0, "curve": "stepped" },
					{ "time": 0.4333, "angle": 0, "curve": "stepped" },
					{ "time": 0.6667, "angle": 0, "curve": "stepped" },
					{ "time": 0.7333, "angle": 0 },
					{ "time": 0.8333, "angle": -25.9, "curve": "stepped" },
					{ "time": 1.1667, "angle": -25.9 }
				],
				"translate": [
					{ "time": 0.4333, "x": 0, "y": 0 }
				]
			},
			"left_arm": {
				"rotate": [
					{
						"time": 0,
						"angle": 0,
						"curve": [ 0.389, 0, 0.657, 0.74 ]
					},
					{
						"time": 0.4333,
						"angle": -25.37,
						"curve": [ 0.316, 0.62, 0.647, 0.99 ]
					},
					{ "time": 0.6667, "angle": -27.52, "curve": "stepped" },
					{ "time": 0.7333, "angle": -27.52 },
					{ "time": 0.8333, "angle": -310.72, "curve": "stepped" },
					{ "time": 1.1667, "angle": -310.72 }
				],
				"translate": [
					{ "time": 0.4333, "x": 0, "y": 0 }
				]
			},
			"bone6": {
				"rotate": [
					{
						"time": 0,
						"angle": 0,
						"curve": [ 0.389, 0, 0.657, 0.74 ]
					},
					{
						"time": 0.4333,
						"angle": -39.04,
						"curve": [ 0.316, 0.62, 0.647, 0.99 ]
					},
					{ "time": 0.6667, "angle": -42.36, "curve": "stepped" },
					{ "time": 0.7333, "angle": -42.36 },
					{ "time": 0.8333, "angle": 0, "curve": "stepped" },
					{ "time": 1.1667, "angle": 0 }
				],
				"translate": [
					{ "time": 0.4333, "x": 0, "y": 0 }
				]
			},
			"bone7": {
				"rotate": [
					{
						"time": 0,
						"angle": 0,
						"curve": [ 0.389, 0, 0.657, 0.74 ]
					},
					{
						"time": 0.4333,
						"angle": -16.48,
						"curve": [ 0.316, 0.62, 0.647, 0.99 ]
					},
					{ "time": 0.6667, "angle": -17.88, "curve": "stepped" },
					{ "time": 0.7333, "angle": -17.88 },
					{ "time": 0.8333, "angle": 0, "curve": "stepped" },
					{ "time": 1.1667, "angle": 0 }
				],
				"translate": [
					{ "time": 0.4333, "x": 0, "y": 0 }
				]
			},
			"head": {
				"rotate": [
					{
						"time": 0,
						"angle": 0,
						"curve": [ 0.389, 0, 0.657, 0.74 ]
					},
					{
						"time": 0.4333,
						"angle": 22.41,
						"curve": [ 0.316, 0.62, 0.647, 0.99 ]
					},
					{ "time": 0.6667, "angle": 24.31, "curve": "stepped" },
					{ "time": 0.7333, "angle": 24.31 },
					{ "time": 0.8333, "angle": 0, "curve": "stepped" },
					{ "time": 1.1667, "angle": 0 }
				],
				"translate": [
					{
						"time": 0,
						"x": 0,
						"y": 0,
						"curve": [ 0.389, 0, 0.657, 0.74 ]
					},
					{
						"time": 0.4333,
						"x": -7.49,
						"y": -0.33,
						"curve": [ 0.316, 0.62, 0.647, 0.99 ]
					},
					{ "time": 0.6667, "x": -8.12, "y": -0.36, "curve": "stepped" },
					{ "time": 0.7333, "x": -8.12, "y": -0.36 },
					{ "time": 0.8333, "x": 0, "y": 0, "curve": "stepped" },
					{ "time": 1.1667, "x": 0, "y": 0 }
				]
			},
			"loincloth": {
				"rotate": [
					{
						"time": 0,
						"angle": 0,
						"curve": [ 0.389, 0, 0.657, 0.74 ]
					},
					{
						"time": 0.4333,
						"angle": 3.77,
						"curve": [ 0.316, 0.62, 0.647, 0.99 ]
					},
					{ "time": 0.6667, "angle": 4.09, "curve": "stepped" },
					{ "time": 0.7333, "angle": 4.09 },
					{
						"time": 0.8,
						"angle": -41.8,
						"curve": [ 0.239, 0.4, 0.543, 1 ]
					},
					{ "time": 1.1, "angle": -30.67, "curve": "stepped" },
					{ "time": 1.1667, "angle": -30.67 }
				],
				"translate": [
					{ "time": 0.4333, "x": 0, "y": 0 }
				]
			},
			"Waist3": {
				"rotate": [
					{
						"time": 0,
						"angle": 0,
						"curve": [ 0.389, 0, 0.657, 0.74 ]
					},
					{
						"time": 0.4333,
						"angle": 3.81,
						"curve": [ 0.316, 0.62, 0.647, 0.99 ]
					},
					{ "time": 0.6667, "angle": 4.14, "curve": "stepped" },
					{ "time": 0.7333, "angle": 4.14 },
					{
						"time": 0.8,
						"angle": -31.69,
						"curve": [ 0.239, 0.4, 0.543, 1 ]
					},
					{ "time": 1.1, "angle": -12.71, "curve": "stepped" },
					{ "time": 1.1667, "angle": -12.71 }
				],
				"translate": [
					{ "time": 0.4333, "x": 0, "y": 0 }
				]
			},
			"Waist4": {
				"rotate": [
					{
						"time": 0,
						"angle": 0,
						"curve": [ 0.389, 0, 0.657, 0.74 ]
					},
					{
						"time": 0.4333,
						"angle": 9.01,
						"curve": [ 0.316, 0.62, 0.647, 0.99 ]
					},
					{ "time": 0.6667, "angle": 9.77, "curve": "stepped" },
					{ "time": 0.7333, "angle": 9.77 },
					{
						"time": 0.8,
						"angle": -17.95,
						"curve": [ 0.239, 0.4, 0.543, 1 ]
					},
					{ "time": 1.1, "angle": 2.41, "curve": "stepped" },
					{ "time": 1.1667, "angle": 2.41 }
				],
				"translate": [
					{ "time": 0.4333, "x": 0, "y": 0 }
				]
			},
			"root": {
				"rotate": [
					{ "time": 0.4333, "angle": 0 }
				],
				"translate": [
					{ "time": 0.4333, "x": 0, "y": 0 }
				]
			},
			"bone": {
				"rotate": [
					{ "time": 0.4333, "angle": 0 }
				],
				"translate": [
					{ "time": 0.4333, "x": 0, "y": 0 }
				]
			},
			"IK_right_leg": {
				"rotate": [
					{ "time": 0.4333, "angle": 0 }
				],
				"translate": [
					{ "time": 0.4333, "x": 0, "y": 0 }
				]
			},
			"left_leg": {
				"rotate": [
					{ "time": 0.4333, "angle": 15.54 }
				],
				"translate": [
					{ "time": 0.4333, "x": 0, "y": 0 }
				]
			},
			"bone12": {
				"rotate": [
					{ "time": 0.4333, "angle": 2.94 }
				],
				"translate": [
					{ "time": 0.4333, "x": 0, "y": 0 }
				]
			},
			"right_leg": {
				"rotate": [
					{ "time": 0.4333, "angle": -42.79 }
				],
				"translate": [
					{ "time": 0.4333, "x": 0, "y": 0 }
				]
			},
			"bone15": {
				"rotate": [
					{ "time": 0.4333, "angle": -6.9 }
				],
				"translate": [
					{ "time": 0.4333, "x": 0, "y": 0 }
				]
			}
		}
	},
	"damage": {
		"bones": {
			"root": {
				"rotate": [
					{ "time": 0, "angle": 0 }
				],
				"translate": [
					{ "time": 0, "x": 0, "y": 0 }
				]
			},
			"bone": {
				"rotate": [
					{ "time": 0, "angle": 0 }
				],
				"translate": [
					{ "time": 0, "x": 0, "y": 0 }
				]
			},
			"Waist": {
				"rotate": [
					{ "time": 0, "angle": 290.12 }
				],
				"translate": [
					{ "time": 0, "x": 184.67, "y": -21.91 }
				]
			},
			"Upper body": {
				"rotate": [
					{ "time": 0, "angle": -8.15 }
				],
				"translate": [
					{ "time": 0, "x": 0, "y": 0 }
				]
			},
			"head": {
				"rotate": [
					{ "time": 0, "angle": -26.45 }
				],
				"translate": [
					{ "time": 0, "x": 0, "y": 0 }
				]
			},
			"left_arm": {
				"rotate": [
					{ "time": 0, "angle": -159.95 }
				],
				"translate": [
					{ "time": 0, "x": 0, "y": 0 }
				]
			},
			"bone6": {
				"rotate": [
					{ "time": 0, "angle": -16.24 }
				],
				"translate": [
					{ "time": 0, "x": 0, "y": 0 }
				]
			},
			"bone7": {
				"rotate": [
					{ "time": 0, "angle": 0 }
				],
				"translate": [
					{ "time": 0, "x": 0, "y": 0 }
				]
			},
			"right_arm": {
				"rotate": [
					{ "time": 0, "angle": -84.12 }
				],
				"translate": [
					{ "time": 0, "x": 0, "y": 0 }
				]
			},
			"bone9": {
				"rotate": [
					{ "time": 0, "angle": -1.98 }
				],
				"translate": [
					{ "time": 0, "x": 0, "y": 0 }
				]
			},
			"bone10": {
				"rotate": [
					{ "time": 0, "angle": -42.57 }
				],
				"translate": [
					{ "time": 0, "x": 0, "y": 0 }
				]
			},
			"IK_right_leg": {
				"rotate": [
					{ "time": 0, "angle": 0 }
				],
				"translate": [
					{ "time": 0, "x": 0, "y": 0 }
				]
			},
			"left_leg": {
				"rotate": [
					{ "time": 0, "angle": -1.97 }
				],
				"translate": [
					{ "time": 0, "x": 0, "y": 0 }
				]
			},
			"bone12": {
				"rotate": [
					{ "time": 0, "angle": 3.67 }
				],
				"translate": [
					{ "time": 0, "x": 0, "y": 0 }
				]
			},
			"bone13": {
				"rotate": [
					{ "time": 0, "angle": 3.06 }
				],
				"translate": [
					{ "time": 0, "x": 0, "y": 0 }
				]
			},
			"IK_left_reg": {
				"rotate": [
					{ "time": 0, "angle": 0 }
				],
				"translate": [
					{ "time": 0, "x": -156.5, "y": 369.34 }
				]
			},
			"right_leg": {
				"rotate": [
					{ "time": 0, "angle": -0.73 }
				],
				"translate": [
					{ "time": 0, "x": 0, "y": 0 }
				]
			},
			"bone15": {
				"rotate": [
					{ "time": 0, "angle": -2.03 }
				],
				"translate": [
					{ "time": 0, "x": 0, "y": 0 }
				]
			},
			"bone16": {
				"rotate": [
					{ "time": 0, "angle": -10.92 }
				],
				"translate": [
					{ "time": 0, "x": 0, "y": 0 }
				]
			},
			"loincloth": {
				"rotate": [
					{ "time": 0, "angle": 0 }
				],
				"translate": [
					{ "time": 0, "x": 0, "y": 0 }
				]
			},
			"Waist3": {
				"rotate": [
					{ "time": 0, "angle": 0 }
				],
				"translate": [
					{ "time": 0, "x": 0, "y": 0 }
				]
			},
			"Waist4": {
				"rotate": [
					{ "time": 0, "angle": 0 }
				],
				"translate": [
					{ "time": 0, "x": 0, "y": 0 }
				]
			}
		}
	},
	"wait": {
		"bones": {
			"Upper body": {
				"scale": [
					{
						"time": 0,
						"x": 1,
						"y": 1,
						"curve": [ 0.383, 0, 0.622, 1 ]
					},
					{
						"time": 1,
						"x": 0.94,
						"y": 0.98,
						"curve": [ 0.383, 0, 0.622, 1 ]
					},
					{ "time": 2, "x": 1, "y": 1 }
				]
			},
			"Waist": {
				"translate": [
					{
						"time": 0,
						"x": 0,
						"y": 0,
						"curve": [ 0.383, 0, 0.622, 1 ]
					},
					{
						"time": 1,
						"x": 0,
						"y": -25.92,
						"curve": [ 0.383, 0, 0.622, 1 ]
					},
					{ "time": 2, "x": 0, "y": 0 }
				]
			},
			"bone13": {
				"rotate": [
					{
						"time": 0,
						"angle": 0,
						"curve": [ 0.383, 0, 0.622, 1 ]
					},
					{
						"time": 1,
						"angle": -11.07,
						"curve": [ 0.383, 0, 0.622, 1 ]
					},
					{ "time": 2, "angle": 0 }
				]
			},
			"bone16": {
				"rotate": [
					{
						"time": 0,
						"angle": 0,
						"curve": [ 0.383, 0, 0.622, 1 ]
					},
					{
						"time": 1,
						"angle": -3.07,
						"curve": [ 0.383, 0, 0.622, 1 ]
					},
					{ "time": 2, "angle": 0 }
				]
			},
			"left_arm": {
				"rotate": [
					{
						"time": 0,
						"angle": 0,
						"curve": [ 0.383, 0, 0.622, 1 ]
					},
					{
						"time": 1,
						"angle": -9,
						"curve": [ 0.383, 0, 0.622, 1 ]
					},
					{ "time": 2, "angle": 0 }
				]
			},
			"bone6": {
				"rotate": [
					{
						"time": 0,
						"angle": -1.56,
						"curve": [ 0.309, 0.57, 0.632, 1 ]
					},
					{
						"time": 0.3333,
						"angle": 0,
						"curve": [ 0.383, 0, 0.622, 1 ]
					},
					{
						"time": 1.3333,
						"angle": -6.23,
						"curve": [ 0.388, 0, 0.679, 0.6 ]
					},
					{ "time": 2, "angle": -1.56 }
				]
			},
			"bone7": {
				"rotate": [
					{
						"time": 0,
						"angle": -3.48,
						"curve": [ 0.308, 0.56, 0.629, 1 ]
					},
					{
						"time": 0.3667,
						"angle": 0,
						"curve": [ 0.383, 0, 0.622, 1 ]
					},
					{
						"time": 1.3667,
						"angle": -11.67,
						"curve": [ 0.387, 0, 0.682, 0.58 ]
					},
					{ "time": 2, "angle": -3.48 }
				]
			},
			"right_arm": {
				"rotate": [
					{
						"time": 0,
						"angle": 0,
						"curve": [ 0.383, 0, 0.622, 1 ]
					},
					{
						"time": 1,
						"angle": 10.05,
						"curve": [ 0.383, 0, 0.622, 1 ]
					},
					{ "time": 2, "angle": 0 }
				]
			},
			"bone9": {
				"rotate": [
					{
						"time": 0,
						"angle": 0,
						"curve": [ 0.383, 0, 0.622, 1 ]
					},
					{
						"time": 1,
						"angle": -2.61,
						"curve": [ 0.383, 0, 0.622, 1 ]
					},
					{ "time": 2, "angle": 0 }
				]
			},
			"bone10": {
				"rotate": [
					{
						"time": 0,
						"angle": -0.11,
						"curve": [ 0.376, 0.06, 0.62, 1 ]
					},
					{
						"time": 0.9667,
						"angle": -12.82,
						"curve": [ 0.383, 0, 0.622, 1 ]
					},
					{
						"time": 1.9667,
						"angle": 0,
						"curve": [ 0.25, 0, 0.75, 1 ]
					},
					{ "time": 2, "angle": -0.11 }
				]
			},
			"IK_right_leg": {
				"translate": [
					{ "time": 0, "x": 0, "y": 0 }
				]
			}
		}
	},
	"walk": {
		"bones": {
			"IK_left_reg": {
				"translate": [
					{
						"time": 0,
						"x": 0,
						"y": 0,
						"curve": [ 0.239, 0.4, 0.39, 0.81 ]
					},
					{ "time": 0.2333, "x": -173.64, "y": 88.4 },
					{
						"time": 0.5333,
						"x": -205.21,
						"y": -72.61,
						"curve": [ 0.474, 0, 0.828, 0.7 ]
					},
					{ "time": 0.9667, "x": -34.85, "y": -17.17 },
					{
						"time": 1.3333,
						"x": 252.56,
						"y": 56.83,
						"curve": [ 0.474, 0, 0.828, 0.7 ]
					},
					{ "time": 1.6667, "x": 0, "y": 0 }
				]
			},
			"IK_right_leg": {
				"translate": [
					{ "time": 0, "x": 0, "y": 0 },
					{
						"time": 0.5333,
						"x": 208.36,
						"y": 31.57,
						"curve": [ 0.474, 0, 0.828, 0.7 ]
					},
					{ "time": 0.9667, "x": -78.92, "y": 94.71 },
					{
						"time": 1.3,
						"x": -138.91,
						"y": 9.47,
						"curve": [ 0.474, 0, 0.828, 0.7 ]
					},
					{ "time": 1.6667, "x": 0, "y": 0 }
				]
			},
			"Waist": {
				"translate": [
					{
						"time": 0,
						"x": 0,
						"y": 0,
						"curve": [ 0.128, 0.09, 0.622, 1 ]
					},
					{
						"time": 0.1667,
						"x": 0,
						"y": 19.34,
						"curve": [ 0.383, 0, 0.622, 1 ]
					},
					{
						"time": 0.5333,
						"x": 0,
						"y": -18.94,
						"curve": [ 0.383, 0, 0.622, 1 ]
					},
					{
						"time": 1,
						"x": 0,
						"y": 19.34,
						"curve": [ 0.383, 0, 0.622, 1 ]
					},
					{
						"time": 1.3333,
						"x": 0,
						"y": -24.86,
						"curve": [ 0.383, 0, 0.912, 0.94 ]
					},
					{ "time": 1.6667, "x": 0, "y": 0 }
				]
			},
			"left_arm": {
				"rotate": [
					{
						"time": 0,
						"angle": 6.12,
						"curve": [ 0.322, 0.42, 0.616, 1 ]
					},
					{
						"time": 0.5333,
						"angle": -15.92,
						"curve": [ 0.383, 0, 0.622, 1 ]
					},
					{
						"time": 1.3667,
						"angle": -345.2,
						"curve": [ 0.372, 0, 0.693, 0.44 ]
					},
					{ "time": 1.6667, "angle": 6.12 }
				]
			},
			"right_arm": {
				"rotate": [
					{
						"time": 0,
						"angle": 1.49,
						"curve": [ 0.318, 0.44, 0.617, 1 ]
					},
					{
						"time": 0.5,
						"angle": 28.75,
						"curve": [ 0.383, 0, 0.622, 1 ]
					},
					{
						"time": 1.3333,
						"angle": -12.53,
						"curve": [ 0.38, 0, 0.692, 0.49 ]
					},
					{ "time": 1.6667, "angle": 1.49 }
				]
			},
			"bone6": {
				"rotate": [
					{
						"time": 0,
						"angle": 0,
						"curve": [ 0.383, 0, 0.622, 1 ]
					},
					{
						"time": 0.8333,
						"angle": -17.05,
						"curve": [ 0.383, 0, 0.622, 1 ]
					},
					{ "time": 1.6667, "angle": 0 }
				]
			},
			"bone7": {
				"rotate": [
					{
						"time": 0,
						"angle": -0.21,
						"curve": [ 0.324, 0.64, 0.657, 0.99 ]
					},
					{
						"time": 0.0667,
						"angle": 0,
						"curve": [ 0.25, 0, 0.75, 1 ]
					},
					{
						"time": 0.9,
						"angle": -10.03,
						"curve": [ 0.387, 0, 0.639, 0.86 ]
					},
					{ "time": 1.6667, "angle": -0.21 }
				]
			},
			"bone9": {
				"rotate": [
					{
						"time": 0,
						"angle": -10.08,
						"curve": [ 0.309, 0.57, 0.633, 1 ]
					},
					{
						"time": 0.2667,
						"angle": -13.11,
						"curve": [ 0.383, 0, 0.622, 1 ]
					},
					{
						"time": 1.1,
						"angle": 0,
						"curve": [ 0.25, 0, 0.75, 1 ]
					},
					{ "time": 1.6667, "angle": -10.08 }
				]
			},
			"bone10": {
				"rotate": [
					{
						"time": 0,
						"angle": -33.75,
						"curve": [ 0.318, 0.44, 0.617, 1 ]
					},
					{
						"time": 0.5,
						"angle": -11.27,
						"curve": [ 0.25, 0, 0.75, 1 ]
					},
					{
						"time": 1.3333,
						"angle": -51.12,
						"curve": [ 0.375, 0, 0.694, 0.46 ]
					},
					{ "time": 1.6667, "angle": -33.75 }
				]
			},
			"Upper body": {
				"rotate": [
					{
						"time": 0,
						"angle": 2.01,
						"curve": [ 0.325, 0.4, 0.615, 1 ]
					},
					{
						"time": 0.2667,
						"angle": 0,
						"curve": [ 0.25, 0, 0.75, 1 ]
					},
					{
						"time": 0.7,
						"angle": 2.66,
						"curve": [ 0.383, 0, 0.622, 1 ]
					},
					{
						"time": 1.1,
						"angle": 0,
						"curve": [ 0.383, 0, 0.622, 1 ]
					},
					{
						"time": 1.5333,
						"angle": 2.66,
						"curve": [ 0.37, 0, 0.693, 0.43 ]
					},
					{ "time": 1.6667, "angle": 2.01 }
				],
				"scale": [
					{
						"time": 0,
						"x": 1,
						"y": 1,
						"curve": [ 0.383, 0, 0.622, 1 ]
					},
					{
						"time": 0.8333,
						"x": 0.97,
						"y": 0.97,
						"curve": [ 0.383, 0, 0.622, 1 ]
					},
					{ "time": 1.6667, "x": 1, "y": 1 }
				]
			},
			"loincloth": {
				"rotate": [
					{
						"time": 0,
						"angle": 0,
						"curve": [ 0.383, 0, 0.622, 1 ]
					},
					{
						"time": 0.4333,
						"angle": 5.45,
						"curve": [ 0.383, 0, 0.622, 1 ]
					},
					{
						"time": 0.8333,
						"angle": 0,
						"curve": [ 0.383, 0, 0.622, 1 ]
					},
					{
						"time": 1.2667,
						"angle": 5.45,
						"curve": [ 0.383, 0, 0.622, 1 ]
					},
					{ "time": 1.6667, "angle": 0 }
				]
			},
			"Waist3": {
				"rotate": [
					{
						"time": 0,
						"angle": 1.12,
						"curve": [ 0.338, 0.32, 0.615, 1 ]
					},
					{
						"time": 0.3333,
						"angle": 9.17,
						"curve": [ 0.383, 0, 0.622, 1 ]
					},
					{
						"time": 0.7333,
						"angle": 0,
						"curve": [ 0.383, 0, 0.622, 1 ]
					},
					{
						"time": 1.1667,
						"angle": 9.17,
						"curve": [ 0.383, 0, 0.622, 1 ]
					},
					{
						"time": 1.5667,
						"angle": 0,
						"curve": [ 0.36, 0, 0.688, 0.4 ]
					},
					{ "time": 1.6667, "angle": 1.12 }
				]
			},
			"Waist4": {
				"rotate": [
					{
						"time": 0,
						"angle": 0,
						"curve": [ 0.383, 0, 0.622, 1 ]
					},
					{
						"time": 0.4333,
						"angle": 16.4,
						"curve": [ 0.383, 0, 0.622, 1 ]
					},
					{
						"time": 0.8333,
						"angle": 0,
						"curve": [ 0.383, 0, 0.622, 1 ]
					},
					{
						"time": 1.2667,
						"angle": 16.4,
						"curve": [ 0.383, 0, 0.622, 1 ]
					},
					{ "time": 1.6667, "angle": 0 }
				]
			}
		}
	}
}
}